MARMUX/simulation/qsim/MARMUX.msim.vcd
$comment
	File created using the following command:
		vcd file MARMUX.msim.vcd -direction
$end
$date
	Sat Mar 16 04:00:22 2019
$end
$version
	ModelSim Version 10.5b
$end
$timescale
	1ps
$end

$scope module MARMUX_vlg_vec_tst $end
$var reg 16 ! IR [15:0] $end
$var reg 16 " MARMUX_Adder [15:0] $end
$var reg 1 # MARMUX_Control $end
$var wire 1 $ MARMUX [15] $end
$var wire 1 % MARMUX [14] $end
$var wire 1 & MARMUX [13] $end
$var wire 1 ' MARMUX [12] $end
$var wire 1 ( MARMUX [11] $end
$var wire 1 ) MARMUX [10] $end
$var wire 1 * MARMUX [9] $end
$var wire 1 + MARMUX [8] $end
$var wire 1 , MARMUX [7] $end
$var wire 1 - MARMUX [6] $end
$var wire 1 . MARMUX [5] $end
$var wire 1 / MARMUX [4] $end
$var wire 1 0 MARMUX [3] $end
$var wire 1 1 MARMUX [2] $end
$var wire 1 2 MARMUX [1] $end
$var wire 1 3 MARMUX [0] $end

$scope module i1 $end
$var wire 1 4 gnd $end
$var wire 1 5 vcc $end
$var wire 1 6 unknown $end
$var tri1 1 7 devclrn $end
$var tri1 1 8 devpor $end
$var tri1 1 9 devoe $end
$var wire 1 : IR[8]~input_o $end
$var wire 1 ; IR[9]~input_o $end
$var wire 1 < IR[10]~input_o $end
$var wire 1 = IR[11]~input_o $end
$var wire 1 > IR[12]~input_o $end
$var wire 1 ? IR[13]~input_o $end
$var wire 1 @ IR[14]~input_o $end
$var wire 1 A IR[15]~input_o $end
$var wire 1 B MARMUX[0]~output_o $end
$var wire 1 C MARMUX[1]~output_o $end
$var wire 1 D MARMUX[2]~output_o $end
$var wire 1 E MARMUX[3]~output_o $end
$var wire 1 F MARMUX[4]~output_o $end
$var wire 1 G MARMUX[5]~output_o $end
$var wire 1 H MARMUX[6]~output_o $end
$var wire 1 I MARMUX[7]~output_o $end
$var wire 1 J MARMUX[8]~output_o $end
$var wire 1 K MARMUX[9]~output_o $end
$var wire 1 L MARMUX[10]~output_o $end
$var wire 1 M MARMUX[11]~output_o $end
$var wire 1 N MARMUX[12]~output_o $end
$var wire 1 O MARMUX[13]~output_o $end
$var wire 1 P MARMUX[14]~output_o $end
$var wire 1 Q MARMUX[15]~output_o $end
$var wire 1 R MARMUX_Adder[0]~input_o $end
$var wire 1 S IR[0]~input_o $end
$var wire 1 T MARMUX_Control~input_o $end
$var wire 1 U MARMUX~0_combout $end
$var wire 1 V IR[1]~input_o $end
$var wire 1 W MARMUX_Adder[1]~input_o $end
$var wire 1 X MARMUX~1_combout $end
$var wire 1 Y MARMUX_Adder[2]~input_o $end
$var wire 1 Z IR[2]~input_o $end
$var wire 1 [ MARMUX~2_combout $end
$var wire 1 \ IR[3]~input_o $end
$var wire 1 ] MARMUX_Adder[3]~input_o $end
$var wire 1 ^ MARMUX~3_combout $end
$var wire 1 _ MARMUX_Adder[4]~input_o $end
$var wire 1 ` IR[4]~input_o $end
$var wire 1 a MARMUX~4_combout $end
$var wire 1 b MARMUX_Adder[5]~input_o $end
$var wire 1 c IR[5]~input_o $end
$var wire 1 d MARMUX~5_combout $end
$var wire 1 e IR[6]~input_o $end
$var wire 1 f MARMUX_Adder[6]~input_o $end
$var wire 1 g MARMUX~6_combout $end
$var wire 1 h MARMUX_Adder[7]~input_o $end
$var wire 1 i IR[7]~input_o $end
$var wire 1 j MARMUX~7_combout $end
$var wire 1 k MARMUX_Adder[8]~input_o $end
$var wire 1 l MARMUX~8_combout $end
$var wire 1 m MARMUX_Adder[9]~input_o $end
$var wire 1 n MARMUX~9_combout $end
$var wire 1 o MARMUX_Adder[10]~input_o $end
$var wire 1 p MARMUX~10_combout $end
$var wire 1 q MARMUX_Adder[11]~input_o $end
$var wire 1 r MARMUX~11_combout $end
$var wire 1 s MARMUX_Adder[12]~input_o $end
$var wire 1 t MARMUX~12_combout $end
$var wire 1 u MARMUX_Adder[13]~input_o $end
$var wire 1 v MARMUX~13_combout $end
$var wire 1 w MARMUX_Adder[14]~input_o $end
$var wire 1 x MARMUX~14_combout $end
$var wire 1 y MARMUX_Adder[15]~input_o $end
$var wire 1 z MARMUX~15_combout $end
$upscope $end
$upscope $end
$enddefinitions $end
#0
$dumpvars
b1111111111111111 !
b11000101010101 "
0#
13
02
11
00
1/
0.
1-
0,
1+
0*
0)
0(
1'
1&
0%
0$
04
15
x6
17
18
19
1:
1;
1<
1=
1>
1?
1@
1A
1B
0C
1D
0E
1F
0G
1H
0I
1J
0K
0L
0M
1N
1O
0P
0Q
1R
1S
0T
1U
1V
0W
0X
1Y
1Z
1[
1\
0]
0^
1_
1`
1a
0b
1c
0d
1e
1f
1g
0h
1i
0j
1k
1l
0m
0n
0o
0p
0q
0r
1s
1t
1u
1v
0w
0x
0y
0z
$end
#5000
b1011000101010101 "
b1111000101010101 "
b1110000101010101 "
b1110001101010101 "
b1110001111010101 "
b1110001111110101 "
b1110001111100101 "
b1110001111101101 "
b1110001111101001 "
b1110001111101000 "
0R
0Y
1]
0_
1b
1h
1m
0s
1w
1y
0U
0[
1^
0a
1d
1j
1n
0t
1x
1z
1Q
1P
0N
1K
1I
1G
0F
1E
0D
0B
03
01
10
0/
1.
1,
1*
0'
1%
1$
#10000
b1110101111101000 "
b1110101110101000 "
b1010101110101000 "
b1010100110101000 "
b1010100110111000 "
b1010100110110000 "
0]
1_
0f
0m
1q
0w
0^
1a
0g
0n
1r
0x
0P
1M
0K
0H
1F
0E
00
1/
0-
0*
1(
0%
#15000
b1000100110110000 "
b1000100010110000 "
b1000100010010000 "
b1000100010010100 "
b1000100010010101 "
b1000000010010101 "
b1000000010000101 "
b1000000010001101 "
1R
1Y
1]
0_
0b
0k
0q
0u
1U
1[
1^
0a
0d
0l
0r
0v
0O
0M
0J
0G
0F
1E
1D
1B
13
11
10
0/
0.
0+
0(
0&
#20000
b1000010010001101 "
b10010001101 "
b1010010001101 "
b1010000001101 "
b1010001001101 "
b1010101001101 "
b1010101001001 "
b1110101001001 "
0Y
1f
0h
1k
1o
1q
1s
0y
0[
1g
0j
1l
1p
1r
1t
0z
0Q
1N
1M
1L
1J
0I
1H
0D
01
1-
0,
1+
1)
1(
1'
0$
#25000
b1111101001001 "
b1101101001001 "
b1101100001001 "
b1101100001101 "
1Y
0f
1m
0o
1[
0g
1n
0p
0L
1K
0H
1D
11
0-
1*
0)
#30000
b11101100001101 "
b11101100001100 "
b11101100011100 "
b11101100010100 "
b1011101100010100 "
b1010101100010100 "
b1010101000010100 "
b1010001000010100 "
b1010000000010100 "
b1010010000010100 "
b1010010000010000 "
0R
0Y
0]
1_
0k
0m
1o
0q
0s
1u
1y
0U
0[
0^
1a
0l
0n
1p
0r
0t
1v
1z
1Q
1O
0N
0M
1L
0K
0J
1F
0E
0D
0B
03
01
00
1/
0+
0*
1)
0(
0'
1&
1$
#35000
b1010010000010010 "
b1110010000010010 "
b1110010000110010 "
b1110010010110010 "
b1110010011110010 "
b1110010011100010 "
b1110110011100010 "
b1110100011100010 "
1W
0_
1b
1f
1h
0o
1q
1w
1X
0a
1d
1g
1j
0p
1r
1x
1P
1M
0L
1I
1H
1G
0F
1C
12
0/
1.
1-
1,
0)
1(
1%
#40000
b1110100011100011 "
b1110100011101011 "
b110100011101011 "
b111100011101011 "
b111101011101011 "
b111101011101111 "
b11101011101111 "
b11101010101111 "
b11001010101111 "
b11011010101111 "
1R
1Y
1]
0f
1m
1o
0q
1s
0w
0y
1U
1[
1^
0g
1n
1p
0r
1t
0x
0z
0Q
0P
1N
0M
1L
1K
0H
1E
1D
1B
13
11
10
0-
1*
1)
0(
1'
0%
0$
#45000
b11011010101101 "
b11011010001101 "
b11011000001101 "
b11011000001100 "
b11011000000100 "
b10011000000100 "
b10010000000100 "
b110010000000100 "
b110110000000100 "
0R
0W
0]
0b
0h
0m
1q
0s
1w
0U
0X
0^
0d
0j
0n
1r
0t
1x
1P
0N
1M
0K
0I
0G
0E
0C
0B
03
02
00
0.
0,
0*
1(
0'
1%
#50000
b1110110000000100 "
b1110110001000100 "
b1110100001000100 "
b1110100001000110 "
b1111100001000110 "
b1111101001000110 "
b1111001001000110 "
1W
1f
1m
0o
0q
1s
1y
1X
1g
1n
0p
0r
1t
1z
1Q
1N
0M
0L
1K
1H
1C
12
1-
1*
0)
0(
1'
1$
#55000
b1111001101000110 "
b1111001101010110 "
b1111001101110110 "
b1111001111110110 "
b1111001111110111 "
b1111001110110111 "
b1111011110110111 "
b1111011110110101 "
b1110011110110101 "
b1110010110110101 "
1R
0W
1_
1b
0f
1h
1k
0m
1o
0s
1U
0X
1a
1d
0g
1j
1l
0n
1p
0t
0N
1L
0K
1J
1I
0H
1G
1F
0C
1B
13
02
1/
1.
0-
1,
1+
0*
1)
0'
#60000
b1100010110110101 "
b1100010110110001 "
b1100010110111001 "
b1000010110111001 "
b1000110110111001 "
b1000110010111001 "
b1000110000111001 "
b1000110000111000 "
b1000100000111000 "
b1001100000111000 "
b1001101000111000 "
0R
0Y
1]
0h
0k
1m
0o
1q
1s
0u
0w
0U
0[
1^
0j
0l
1n
0p
1r
1t
0v
0x
0P
0O
1N
1M
0L
1K
0J
0I
1E
0D
0B
03
01
10
0,
0+
1*
0)
1(
1'
0&
0%
#65000
b1001101000101000 "
b1001101000001000 "
b1001101001001000 "
b1001101001001010 "
b1001101101001010 "
b1001101111001010 "
b1001111111001010 "
b1000111111001010 "
b1000110111001010 "
1W
0_
0b
1f
1h
1k
0m
1o
0s
1X
0a
0d
1g
1j
1l
0n
1p
0t
0N
1L
0K
1J
1I
1H
0G
0F
1C
12
0/
0.
1-
1,
1+
0*
1)
0'
#70000
b110111001010 "
b110111001110 "
b10111001110 "
b10111011110 "
b10111111110 "
b10110111110 "
b10010111110 "
b10000111110 "
b1010000111110 "
b1011000111110 "
1Y
1_
1b
0f
0h
0k
1m
0q
1s
0y
1[
1a
1d
0g
0j
0l
1n
0r
1t
0z
0Q
1N
0M
1K
0J
0I
0H
1G
1F
1D
11
1/
1.
0-
0,
0+
1*
0(
1'
0$
#75000
b101011000111110 "
b101011000111010 "
b101011000101010 "
b101011000001010 "
b101011001001010 "
b101011011001010 "
b100011011001010 "
0Y
0_
0b
1f
1h
0s
1w
0[
0a
0d
1g
1j
0t
1x
1P
0N
1I
1H
0G
0F
0D
01
0/
0.
1-
1,
0'
1%
#80000
b100001011001010 "
b1100001011001010 "
b1100001111001010 "
b1100000111001010 "
b1000000111001010 "
b1000000111011010 "
b1000000101011010 "
b1001000101011010 "
1_
0h
1k
0m
0o
1s
0w
1y
1a
0j
1l
0n
0p
1t
0x
1z
1Q
0P
1N
0L
0K
1J
0I
1F
1/
0,
1+
0*
0)
1'
0%
1$
#85000
b1001000101010010 "
b1001000101010110 "
b1001010101010110 "
b1001010111010110 "
1Y
0]
1h
1o
1[
0^
1j
1p
1L
1I
0E
1D
11
00
1,
1)
#90000
b1001010011010110 "
b1001010011011110 "
1]
0k
1^
0l
0J
1E
10
0+
#95000
b1011010011011110 "
b1011010011011111 "
b1011010011011101 "
b1011110011011101 "
b1011110010011101 "
b11110010011101 "
b11111010011101 "
b111111010011101 "
b111111010001101 "
b110111010001101 "
b110111010001001 "
b110111010000001 "
1R
0W
0Y
0]
0_
0f
1m
1q
0s
1u
1w
0y
1U
0X
0[
0^
0a
0g
1n
1r
0t
1v
1x
0z
0Q
1P
1O
0N
1M
1K
0H
0F
0E
0D
0C
1B
13
02
01
00
0/
0-
1*
1(
0'
1&
1%
0$
#100000
1#
b110111000000001 "
b110111100000001 "
b110111100000011 "
b110011100000011 "
b1110011100000011 "
b1110010100000011 "
b1111010100000011 "
1T
1W
0h
1k
0m
0q
1s
1y
0x
0v
0r
0p
0n
1g
1d
1a
1^
1[
1X
1C
1D
1E
1F
1G
1H
0K
0L
0M
0O
0P
0%
0&
0(
0)
0*
1-
1.
1/
10
11
12
#105000
b1111010100100011 "
b1111000100100011 "
b1101000100100011 "
b1101000110100011 "
b1101000010100011 "
b1101000010100001 "
b1100000010100001 "
0W
1b
1h
0k
0o
0s
0u
#110000
b1100000010100000 "
b1000000010100000 "
b1000000010100100 "
b1000000010101100 "
b1000001010101100 "
b1000011010101100 "
b1010011010101100 "
b1010011000101100 "
0R
1Y
1]
0h
1m
1o
1u
0w
#115000
b10011000101100 "
b10011000001100 "
b10011000001110 "
b110011000001110 "
b110011000000110 "
b110010000000110 "
b110000000000110 "
1W
0]
0b
0m
0o
1w
0y
#120000
b110000001000110 "
b110000101000110 "
b111000101000110 "
b101000101000110 "
b101000111000110 "
b101000111001110 "
b101001111001110 "
b101011111001110 "
1]
1f
1h
1k
1m
1o
1s
0u
#125000
b101011111011110 "
b101011111011111 "
b101011111011011 "
b101011111111011 "
b1011111111011 "
b11111111011 "
b11101111011 "
b10101111011 "
b101111011 "
1R
0Y
1_
1b
0h
0m
0o
0s
0w
#130000
b100101111011 "
b1000100101111011 "
b1000100001111011 "
b1010100001111011 "
b1010100001110011 "
b1010100001100011 "
b1010100001000011 "
b1110100001000011 "
b1111100001000011 "
b1111100011000011 "
0]
0_
0b
1h
0k
1q
1s
1u
1w
1y
#135000
b1111100011000001 "
b1111100011000000 "
b1111101011000000 "
b1111001011000000 "
b1111001111000000 "
b1111001111010000 "
b1111001111110000 "
b1111001101110000 "
0R
0W
1_
1b
0h
1k
1m
0q
#140000
b1111001100110000 "
b1111001100110100 "
b111001100110100 "
b111001100111100 "
b110001100111100 "
b110001100111101 "
b110001100011101 "
b110001110011101 "
1R
1Y
1]
0b
0f
1h
0s
0y
#145000
b100001110011101 "
b1110011101 "
b110011101 "
b100110011101 "
b100010011101 "
b100010010101 "
b1100010010101 "
b1100010010100 "
b1100010110100 "
b1100000110100 "
0R
0]
1b
0h
0k
0m
1q
1s
0u
0w
#150000
b1110000110100 "
b1110000110110 "
b1110000100110 "
b1110001100110 "
b1110001100010 "
b101110001100010 "
b101111001100010 "
b101011001100010 "
b101011001000010 "
1W
0Y
0_
0b
1f
1m
1o
0q
1w
#155000
b101011101000010 "
b100011101000010 "
b100011101000011 "
b100011101000001 "
b100011101010001 "
b100011100010001 "
b11100010001 "
b10100010001 "
1R
0W
1_
0f
1k
0m
0s
0w
#160000
b10100011001 "
b10100011101 "
b110100011101 "
b110100111101 "
b110100111100 "
b100110100111100 "
0R
1Y
1]
1b
1q
1w
#165000
b110110100111100 "
b110110110111100 "
b110110110101100 "
b110110111101100 "
b110111111101100 "
b110011111101100 "
b110011111101101 "
b10011111101101 "
1R
0_
1f
1h
1m
0q
1u
0w
#170000
b1010011111101101 "
b1010001111101101 "
b1010001011101101 "
b1011001011101101 "
b1011001011101111 "
b1011001011101011 "
b1011001011001011 "
b1011001001001011 "
b1011101001001011 "
1W
0Y
0b
0h
0k
0o
1q
1s
1y
#175000
b1011101001000011 "
b1001101001000011 "
b1001100001000011 "
b1101100001000011 "
b1101100101000011 "
b1100100101000011 "
b1100100101000001 "
b1100100101100001 "
b1100000101100001 "
0W
0]
1b
1k
0m
0q
0s
0u
1w
#180000
b1100000101110001 "
b1100000101110000 "
b100000101110000 "
b100000101110100 "
b100000111110100 "
b100001111110100 "
b1111110100 "
b101111110100 "
0R
1Y
1_
1h
1m
1q
0w
0y
#185000
b111111110100 "
b1111111110100 "
b1111111010100 "
b1111111000100 "
b1111111000101 "
b1110111000101 "
1R
0_
0b
0m
1o
1s
#190000
b11110111000101 "
b11110011000101 "
b11110011000111 "
b1011110011000111 "
b1011110001000111 "
b1111110001000111 "
b1111100001000111 "
b1110100001000111 "
b1110100001010111 "
1W
1_
0h
0k
0o
0s
1u
1w
1y
#195000
b1110100001011111 "
b1110100001011011 "
b1110100001111011 "
b1110100001111010 "
b1110100101111010 "
b1110100111111010 "
b1111100111111010 "
0R
0Y
1]
1b
1h
1k
1s
#200000
0#
b1111100110111010 "
b1111000110111010 "
b111000110111010 "
b111010110111010 "
b111010110110010 "
b111010110010010 "
b111010110010011 "
b111010010010011 "
0T
1R
0]
0b
0f
0k
1o
0q
0y
1x
1v
1t
1p
0g
0d
0^
0[
0D
0E
0G
0H
1L
1N
1O
1P
1%
1&
1'
1)
0-
0.
00
01
#205000
b111011010010011 "
b101011010010011 "
b101011010010111 "
b101011000010111 "
b100011000010111 "
b100111000010111 "
b100111000110111 "
b100111100110111 "
1Y
1b
0h
1k
1m
1q
0s
0u
1[
1d
0j
1l
1n
1r
0t
0v
0O
0N
1M
1K
1J
0I
1G
1D
11
1.
0,
1+
1*
1(
0'
0&
#210000
b100111100110101 "
b111100110101 "
b111100100101 "
b1000111100100101 "
b1000101100100101 "
b1000100100100101 "
b1010100100100101 "
b1010100100100001 "
b1011100100100001 "
b1011000100100001 "
b1011000000100001 "
0W
0Y
0_
0k
0m
0o
0q
1s
1u
0w
1y
0X
0[
0a
0l
0n
0p
0r
1t
1v
0x
1z
1Q
0P
1O
1N
0M
0L
0K
0J
0F
0D
0C
02
01
0/
0+
0*
0)
0(
1'
1&
0%
1$
#215000
b1011000001100001 "
b1011000001101001 "
b1011000001101000 "
b1011000011101000 "
b1011000011101010 "
b11000011101010 "
b11010011101010 "
b11011011101010 "
b1011011101010 "
0R
1W
1]
1f
1h
1m
1o
0u
0y
0U
1X
1^
1g
1j
1n
1p
0v
0z
0Q
0O
1L
1K
1I
1H
1E
1C
0B
03
12
10
1-
1,
1*
1)
0&
0$
#220000
b1011011001010 "
b1011011011010 "
b1011011011110 "
b11011011110 "
b11111011110 "
b11111010110 "
b11101010110 "
b11101010100 "
b1101010100 "
b10001101010100 "
0W
1Y
0]
1_
0b
0h
1k
0o
0s
1u
0X
1[
0^
1a
0d
0j
1l
0p
0t
1v
1O
0N
0L
1J
0I
0G
1F
0E
1D
0C
02
11
00
1/
0.
0,
1+
0)
0'
1&
#225000
b110001101010100 "
b110101101010100 "
b110101100010100 "
b1110101100010100 "
b1110101100110100 "
b1110101100110000 "
b1111101100110000 "
b1111101100110010 "
b1111111100110010 "
1W
0Y
1b
0f
1o
1q
1s
1w
1y
1X
0[
1d
0g
1p
1r
1t
1x
1z
1Q
1P
1N
1M
1L
0H
1G
0D
1C
12
01
1.
0-
1)
1(
1'
1%
1$
#230000
b1111110100110010 "
b1111110000110010 "
b1111110000111010 "
b1111110010111010 "
b1101110010111010 "
b1101010010111010 "
b1100010010111010 "
b1100010010111000 "
b1100000010111000 "
0W
1]
1h
0k
0m
0o
0q
0s
0u
0X
1^
1j
0l
0n
0p
0r
0t
0v
0O
0N
0M
0L
0K
0J
1I
1E
0C
02
10
1,
0+
0*
0)
0(
0'
0&
#235000
b1100000010111001 "
b1000000010111001 "
b1000000011111001 "
b11111001 "
b11011001 "
b1011011001 "
b10001011011001 "
b10101011011001 "
1R
0b
1f
1m
1q
1u
0w
0y
1U
0d
1g
1n
1r
1v
0x
0z
0Q
0P
1O
1M
1K
1H
0G
1B
13
0.
1-
1*
1(
1&
0%
0$
#240000
b10101111011001 "
b11101111011001 "
b11111111011001 "
b111111111011001 "
b111110111011001 "
b101110111011001 "
b101010111011001 "
1k
0m
1o
0q
1s
0u
1w
1l
0n
1p
0r
1t
0v
1x
1P
0O
1N
0M
1L
0K
1J
1+
0*
1)
0(
1'
0&
1%
#245000
b101010111011101 "
b101010101011101 "
b101010101111101 "
b101010001111101 "
b1010001111101 "
b1011001111101 "
b11011001111101 "
b11111001111101 "
1Y
1b
0h
0k
1m
1q
1u
0w
1[
1d
0j
0l
1n
1r
1v
0x
0P
1O
1M
1K
0J
0I
1G
1D
11
1.
0,
0+
1*
1(
1&
0%
#250000
b11111001110101 "
b11111000110101 "
b1011111000110101 "
b1011101000110101 "
b1011101010110101 "
b1011101110110101 "
b1111101110110101 "
b1111100110110101 "
b1101100110110101 "
0]
0f
1h
1k
0m
0o
0u
1w
1y
0^
0g
1j
1l
0n
0p
0v
1x
1z
1Q
1P
0O
0L
0K
1J
1I
0H
0E
00
0-
1,
1+
0*
0)
0&
1%
1$
#255000
b1101100110100101 "
b1101100110100111 "
b1101100110100110 "
b1100100110100110 "
b1100100110100010 "
b1100100110000010 "
b1100100110001010 "
b1100110110001010 "
b1100110010001010 "
b1100111010001010 "
0R
1W
0Y
1]
0_
0b
0k
1m
1o
0s
0U
1X
0[
1^
0a
0d
0l
1n
1p
0t
0N
1L
1K
0J
0G
0F
1E
0D
1C
0B
03
12
01
10
0/
0.
0+
1*
1)
0'
#260000
b1100111011001010 "
b100111011001010 "
b100111001001010 "
b110111001001010 "
b110111001011010 "
b110111001011000 "
b110111001011001 "
b110111001011101 "
b110111001010101 "
1R
0W
1Y
0]
1_
1f
0h
1u
0y
1U
0X
1[
0^
1a
1g
0j
1v
0z
0Q
1O
0I
1H
1F
0E
1D
0C
1B
13
02
11
00
1/
1-
0,
1&
0$
#265000
b110011001010101 "
b10011001010101 "
b11011001010101 "
b11011001110101 "
b11001001110101 "
b11001011110101 "
b1001011110101 "
b1001011110111 "
1W
1b
1h
0o
0q
1s
0u
0w
1X
1d
1j
0p
0r
1t
0v
0x
0P
0O
1N
0M
0L
1I
1G
1C
12
1.
1,
0)
0(
1'
0&
0%
#270000
b1001111110111 "
b1001110110111 "
b1001001110110111 "
b1001001110110011 "
b1101001110110011 "
b1100001110110011 "
b1100001110010011 "
0Y
0b
0f
1k
0s
1w
1y
0[
0d
0g
1l
0t
1x
1z
1Q
1P
0N
1J
0H
0G
0D
01
0.
0-
1+
0'
1%
1$
#275000
b1100001110000011 "
b1100001110001011 "
b1100001100001011 "
b1100001000001011 "
b1100001000001111 "
b1000001000001111 "
b1001001000001111 "
1Y
1]
0_
0h
0k
1s
0w
1[
1^
0a
0j
0l
1t
0x
0P
1N
0J
0I
0F
1E
1D
11
10
0/
0,
0+
1'
0%
#280000
b1001011000001111 "
b1001011000101111 "
b1001011000100111 "
b1001011010100111 "
b1000011010100111 "
0]
1b
1h
1o
0s
0^
1d
1j
1p
0t
0N
1L
1I
1G
0E
00
1.
1,
1)
0'
#285000
b1000111010100111 "
b1010111010100111 "
b1010111010100101 "
b1010111011100101 "
b1010111011110101 "
b1010111111110101 "
b1010111111110001 "
b1110111111110001 "
b1110111101110001 "
0W
0Y
1_
1f
0h
1k
1q
1u
1w
0X
0[
1a
1g
0j
1l
1r
1v
1x
1P
1O
1M
1J
0I
1H
1F
0D
0C
02
01
1/
1-
0,
1+
1(
1&
1%
#290000
b1110110101110001 "
b1110110101110000 "
b1110100101110000 "
b1110100101010000 "
b1110100101011000 "
b1110100101011010 "
b1110100100011010 "
0R
1W
1]
0b
0f
0m
0o
0U
1X
1^
0d
0g
0n
0p
0L
0K
0H
0G
1E
1C
0B
03
12
10
0.
0-
0*
0)
#295000
b1111100100011010 "
b1111000100011010 "
b1101000100011010 "
b1101000100001010 "
b1101000100001110 "
b1001000100001110 "
b1001000110001110 "
b1001000110001111 "
b1001010110001111 "
b1001010110101111 "
b1001010110101101 "
b1001010111101101 "
1R
0W
1Y
0_
1b
1f
1h
1o
0q
1s
0u
0w
1U
0X
1[
0a
1d
1g
1j
1p
0r
1t
0v
0x
0P
0O
1N
0M
1L
1I
1H
1G
0F
1D
0C
1B
13
02
11
0/
1.
1-
1,
1)
0(
1'
0&
0%
#300000
1#
b1001010011101101 "
b1001011011101101 "
b1001111011101101 "
b1011111011101101 "
b1011101011101101 "
b1011101010101101 "
1T
0f
0k
1m
0o
1q
1u
0z
0t
0p
0l
1a
1X
1C
1F
0J
0L
0N
0Q
0$
0'
0)
0+
1/
12
#305000
b11101010101101 "
b10101010101101 "
b10101010111101 "
b10101000111101 "
b10101000111100 "
b10100000111100 "
b10000000111100 "
b111100 "
b10000111100 "
b10001111100 "
0R
1_
1f
0h
0m
1o
0q
0s
0u
0y
#310000
b10001111000 "
b10101111000 "
b1000010101111000 "
b1001010101111000 "
b1001011101111000 "
b1001011100111000 "
0Y
0f
1k
1m
1s
1y
#315000
b1101011100111000 "
b1101011100111010 "
b1101011100101010 "
b1101011100101011 "
b1101111100101011 "
b1101101100101011 "
b1101101000101011 "
b101101000101011 "
b100101000101011 "
b100100000101011 "
1R
1W
0_
0k
0m
0o
1q
0s
1w
0y
#320000
b100100000101001 "
b100100000111001 "
b100000000111001 "
b1100000000111001 "
b1101000000111001 "
b1101001000111001 "
0W
1_
1m
0q
1s
1y
#325000
b1101001000110001 "
b1101001010110001 "
b1111001010110001 "
b1111001010110101 "
b1111001011110101 "
b1011001011110101 "
b1011001011110100 "
0R
1Y
0]
1f
1h
1u
0w
#330000
b1011001011010100 "
b1011011011010100 "
b1011011111010100 "
b1011111111010100 "
b11111111010100 "
b11111111011100 "
b11111101011100 "
b11111101011000 "
b11111100011000 "
b111111100011000 "
0Y
1]
0b
0f
0h
1k
1o
1q
1w
0y
#335000
b110111100011000 "
b110110100011000 "
b110110100011001 "
b110110100111001 "
b110110000111001 "
b110010000111001 "
b110010000110001 "
b110010001110001 "
b10010001110001 "
1R
0]
1b
1f
0k
0m
0q
0s
0w
#340000
b10001110001 "
b10001110101 "
b1010001110101 "
b1011001110101 "
b1011001110100 "
b1011001010100 "
b1011101010100 "
b1011101011100 "
b101011101011100 "
0R
1Y
1]
0b
1k
1m
1s
0u
1w
#345000
b101011101001100 "
b101001101001100 "
b1101001101001100 "
b1101001111001100 "
b1111001111001100 "
b1111001111001000 "
b1111001111001001 "
b1111001111101001 "
b1111001111100001 "
b1011001111100001 "
1R
0Y
0]
0_
1b
1h
0o
1u
0w
1y
#350000
b1011001111100011 "
b1011101111100011 "
b1010101111100011 "
b1010100111100011 "
b1010100011100011 "
b10100011100011 "
b10100001100011 "
b110100001100011 "
1W
0h
0k
0m
1q
0s
1w
0y
#355000
b110100000100011 "
b110110000100011 "
b100110000100011 "
b100110000100111 "
b100110000000111 "
b100010000000111 "
b101010000000111 "
b101011000000111 "
1Y
0b
0f
1m
1o
0q
1s
0u
#360000
b101011000010111 "
b101011000011111 "
b101011100011111 "
b1101011100011111 "
b1001011100011111 "
b1001001100011111 "
b1001001100111111 "
b1001000100111111 "
1]
1_
1b
1k
0m
0o
0w
1y
#365000
b1001000100111110 "
b1001000110111110 "
b1001000111111110 "
b1001000111111010 "
b1001000111101010 "
b1001000011101010 "
b1001001011101010 "
0R
0Y
0_
1f
1h
0k
1m
#370000
b1001101011101010 "
b1001101011100010 "
b1101011100010 "
b1111011100010 "
b1111010100010 "
b1111010100110 "
b1111010110110 "
b1111110110110 "
b1110110110110 "
1Y
0]
1_
0f
1k
0m
1o
1q
0y
#375000
b1110110110100 "
b11110110110100 "
b10110110110100 "
b110110110110100 "
b110110110110101 "
b110010110110101 "
b110010110111101 "
b110010111111101 "
b110010111111001 "
b110010111101001 "
b110011111101001 "
1R
0W
0Y
1]
0_
1f
1m
0q
0s
1u
1w
#380000
b110011101101001 "
b110001101101001 "
b110001101101011 "
b10001101101011 "
b10001101100011 "
b10001100100011 "
b10001100100111 "
b10001100110111 "
1W
1Y
0]
1_
0f
0h
0o
0w
#385000
b1010001100110111 "
b1010001100110110 "
b1010101100110110 "
b1010101110110110 "
b1010101110110100 "
b1110101110110100 "
b1110101110100100 "
0R
0W
0_
1h
1q
1w
1y
#390000
b1110101110000100 "
b1100101110000100 "
b1100111110000100 "
b1100111111000100 "
b1100111111000000 "
b1100111111010000 "
0Y
1_
0b
1f
1o
0u
#395000
b1101111111010000 "
b1101110111010000 "
b1101110111011000 "
b1101110111011001 "
b1101010111011001 "
b1101010101011001 "
b1101010101111001 "
b1111010101111001 "
b1111010100111001 "
1R
1]
1b
0f
0h
0m
0q
1s
1u
#400000
0#
b1111010000111001 "
b111010000111001 "
b111010000111011 "
b111000000111011 "
b111000000111111 "
b111000000101111 "
b110000000101111 "
b110001000101111 "
b110001000100111 "
b110001000100110 "
b110001000000110 "
b110001001000110 "
0T
0R
1W
1Y
0]
0_
0b
1f
0k
1m
0o
0s
0y
1x
1v
1n
0j
0d
0a
0^
0U
0B
0E
0F
0G
0I
1K
1O
1P
1%
1&
1*
0,
0.
0/
00
03
#405000
b10001001000110 "
b10101001000110 "
b101001000110 "
b101101000110 "
b1000101101000110 "
b1000101101000100 "
b1000111101000100 "
b1000111101010100 "
b1000110101010100 "
b1000110101011100 "
0W
1]
1_
1k
0m
1o
1q
0u
0w
1y
0X
1^
1a
1l
0n
1p
1r
0v
0x
1z
1Q
0P
0O
1M
1L
0K
1J
1F
1E
0C
02
10
1/
1+
0*
1)
1(
0&
0%
1$
#410000
b1000110111011100 "
b1000110111111100 "
b1100110111111100 "
b1100110111111110 "
b1100100111111110 "
b1100100111101110 "
1W
0_
1b
1h
0o
1w
1X
0a
1d
1j
0p
1x
1P
0L
1I
1G
0F
1C
12
0/
1.
1,
0)
1%
#415000
b1100100110101110 "
b1100000110101110 "
b1110000110101110 "
b1110000100101110 "
b1110000100001110 "
b1010000100001110 "
b1010000100001100 "
b1010010100001100 "
b1010010100011100 "
0W
1_
0b
0f
0h
1o
0q
1u
0w
0X
1a
0d
0g
0j
1p
0r
1v
0x
0P
1O
0M
1L
0I
0H
0G
1F
0C
02
1/
0.
0-
0,
1)
0(
1&
0%
#420000
b1011010100011100 "
b1011010100011101 "
b11010100011101 "
b11010101011101 "
b11110101011101 "
b1110101011101 "
b101110101011101 "
1R
1f
1q
1s
0u
1w
0y
1U
1g
1r
1t
0v
1x
0z
0Q
1P
0O
1N
1M
1H
1B
13
1-
1(
1'
0&
1%
0$
