ALU/simulation/qsim/ALU.msim.vcd
$comment
	File created using the following command:
		vcd file ALU.msim.vcd -direction
$end
$date
	Wed Mar 13 15:12:41 2019
$end
$version
	ModelSim Version 10.5b
$end
$timescale
	1ps
$end

$scope module ALU_vlg_vec_tst $end
$var reg 2 ! ALUMUX_Control [1:0] $end
$var reg 16 " IR [15:0] $end
$var reg 16 # SR1_In [15:0] $end
$var reg 1 $ SR2MUX_Control $end
$var reg 16 % SR2_In [15:0] $end
$var wire 1 & ALU_Out [15] $end
$var wire 1 ' ALU_Out [14] $end
$var wire 1 ( ALU_Out [13] $end
$var wire 1 ) ALU_Out [12] $end
$var wire 1 * ALU_Out [11] $end
$var wire 1 + ALU_Out [10] $end
$var wire 1 , ALU_Out [9] $end
$var wire 1 - ALU_Out [8] $end
$var wire 1 . ALU_Out [7] $end
$var wire 1 / ALU_Out [6] $end
$var wire 1 0 ALU_Out [5] $end
$var wire 1 1 ALU_Out [4] $end
$var wire 1 2 ALU_Out [3] $end
$var wire 1 3 ALU_Out [2] $end
$var wire 1 4 ALU_Out [1] $end
$var wire 1 5 ALU_Out [0] $end

$scope module i1 $end
$var wire 1 6 gnd $end
$var wire 1 7 vcc $end
$var wire 1 8 unknown $end
$var tri1 1 9 devclrn $end
$var tri1 1 : devpor $end
$var tri1 1 ; devoe $end
$var wire 1 < IR[5]~input_o $end
$var wire 1 = IR[6]~input_o $end
$var wire 1 > IR[7]~input_o $end
$var wire 1 ? IR[8]~input_o $end
$var wire 1 @ IR[9]~input_o $end
$var wire 1 A IR[10]~input_o $end
$var wire 1 B IR[11]~input_o $end
$var wire 1 C IR[12]~input_o $end
$var wire 1 D IR[13]~input_o $end
$var wire 1 E IR[14]~input_o $end
$var wire 1 F IR[15]~input_o $end
$var wire 1 G ALU_Out[0]~output_o $end
$var wire 1 H ALU_Out[1]~output_o $end
$var wire 1 I ALU_Out[2]~output_o $end
$var wire 1 J ALU_Out[3]~output_o $end
$var wire 1 K ALU_Out[4]~output_o $end
$var wire 1 L ALU_Out[5]~output_o $end
$var wire 1 M ALU_Out[6]~output_o $end
$var wire 1 N ALU_Out[7]~output_o $end
$var wire 1 O ALU_Out[8]~output_o $end
$var wire 1 P ALU_Out[9]~output_o $end
$var wire 1 Q ALU_Out[10]~output_o $end
$var wire 1 R ALU_Out[11]~output_o $end
$var wire 1 S ALU_Out[12]~output_o $end
$var wire 1 T ALU_Out[13]~output_o $end
$var wire 1 U ALU_Out[14]~output_o $end
$var wire 1 V ALU_Out[15]~output_o $end
$var wire 1 W ALUMUX_Control[0]~input_o $end
$var wire 1 X ALUMUX_Control[1]~input_o $end
$var wire 1 Y SR2MUX_Control~input_o $end
$var wire 1 Z SR2_In[0]~input_o $end
$var wire 1 [ IR[0]~input_o $end
$var wire 1 \ SR2MUX[0]~0_combout $end
$var wire 1 ] SR1_In[0]~input_o $end
$var wire 1 ^ ADD[0]~0_combout $end
$var wire 1 _ ALU_Out~0_combout $end
$var wire 1 ` ALU_Out~1_combout $end
$var wire 1 a SR1_In[1]~input_o $end
$var wire 1 b SR2_In[1]~input_o $end
$var wire 1 c IR[1]~input_o $end
$var wire 1 d SR2MUX[1]~1_combout $end
$var wire 1 e ADD[0]~1 $end
$var wire 1 f ADD[1]~2_combout $end
$var wire 1 g ALU_Out~2_combout $end
$var wire 1 h ALU_Out~3_combout $end
$var wire 1 i SR1_In[2]~input_o $end
$var wire 1 j SR2_In[2]~input_o $end
$var wire 1 k IR[2]~input_o $end
$var wire 1 l SR2MUX[2]~2_combout $end
$var wire 1 m ADD[1]~3 $end
$var wire 1 n ADD[2]~4_combout $end
$var wire 1 o ALU_Out~4_combout $end
$var wire 1 p ALU_Out~5_combout $end
$var wire 1 q SR1_In[3]~input_o $end
$var wire 1 r IR[3]~input_o $end
$var wire 1 s SR2_In[3]~input_o $end
$var wire 1 t SR2MUX[3]~3_combout $end
$var wire 1 u ALU_Out~6_combout $end
$var wire 1 v ADD[2]~5 $end
$var wire 1 w ADD[3]~6_combout $end
$var wire 1 x ALU_Out~7_combout $end
$var wire 1 y SR2_In[4]~input_o $end
$var wire 1 z IR[4]~input_o $end
$var wire 1 { SR2MUX[4]~4_combout $end
$var wire 1 | SR1_In[4]~input_o $end
$var wire 1 } ADD[3]~7 $end
$var wire 1 ~ ADD[4]~8_combout $end
$var wire 1 !! ALU_Out~8_combout $end
$var wire 1 "! ALU_Out~9_combout $end
$var wire 1 #! SR2_In[5]~input_o $end
$var wire 1 $! SR2MUX[5]~5_combout $end
$var wire 1 %! SR1_In[5]~input_o $end
$var wire 1 &! ADD[4]~9 $end
$var wire 1 '! ADD[5]~10_combout $end
$var wire 1 (! ALU_Out~10_combout $end
$var wire 1 )! ALU_Out~11_combout $end
$var wire 1 *! SR1_In[6]~input_o $end
$var wire 1 +! SR2_In[6]~input_o $end
$var wire 1 ,! SR2MUX[6]~6_combout $end
$var wire 1 -! ADD[5]~11 $end
$var wire 1 .! ADD[6]~12_combout $end
$var wire 1 /! ALU_Out~12_combout $end
$var wire 1 0! ALU_Out~13_combout $end
$var wire 1 1! SR2_In[7]~input_o $end
$var wire 1 2! SR2MUX[7]~7_combout $end
$var wire 1 3! ALU_Out~14_combout $end
$var wire 1 4! SR1_In[7]~input_o $end
$var wire 1 5! ADD[6]~13 $end
$var wire 1 6! ADD[7]~14_combout $end
$var wire 1 7! ALU_Out~15_combout $end
$var wire 1 8! SR2_In[8]~input_o $end
$var wire 1 9! SR2MUX[8]~8_combout $end
$var wire 1 :! SR1_In[8]~input_o $end
$var wire 1 ;! ADD[7]~15 $end
$var wire 1 <! ADD[8]~16_combout $end
$var wire 1 =! ALU_Out~16_combout $end
$var wire 1 >! ALU_Out~17_combout $end
$var wire 1 ?! SR1_In[9]~input_o $end
$var wire 1 @! SR2_In[9]~input_o $end
$var wire 1 A! SR2MUX[9]~9_combout $end
$var wire 1 B! ALU_Out~18_combout $end
$var wire 1 C! ADD[8]~17 $end
$var wire 1 D! ADD[9]~18_combout $end
$var wire 1 E! ALU_Out~19_combout $end
$var wire 1 F! SR1_In[10]~input_o $end
$var wire 1 G! SR2_In[10]~input_o $end
$var wire 1 H! SR2MUX[10]~10_combout $end
$var wire 1 I! ALU_Out~20_combout $end
$var wire 1 J! ADD[9]~19 $end
$var wire 1 K! ADD[10]~20_combout $end
$var wire 1 L! ALU_Out~21_combout $end
$var wire 1 M! SR2_In[11]~input_o $end
$var wire 1 N! SR2MUX[11]~11_combout $end
$var wire 1 O! SR1_In[11]~input_o $end
$var wire 1 P! ADD[10]~21 $end
$var wire 1 Q! ADD[11]~22_combout $end
$var wire 1 R! ALU_Out~22_combout $end
$var wire 1 S! ALU_Out~23_combout $end
$var wire 1 T! SR1_In[12]~input_o $end
$var wire 1 U! SR2_In[12]~input_o $end
$var wire 1 V! SR2MUX[12]~12_combout $end
$var wire 1 W! ADD[11]~23 $end
$var wire 1 X! ADD[12]~24_combout $end
$var wire 1 Y! ALU_Out~24_combout $end
$var wire 1 Z! ALU_Out~25_combout $end
$var wire 1 [! SR2_In[13]~input_o $end
$var wire 1 \! SR2MUX[13]~13_combout $end
$var wire 1 ]! ALU_Out~26_combout $end
$var wire 1 ^! SR1_In[13]~input_o $end
$var wire 1 _! ADD[12]~25 $end
$var wire 1 `! ADD[13]~26_combout $end
$var wire 1 a! ALU_Out~27_combout $end
$var wire 1 b! SR2_In[14]~input_o $end
$var wire 1 c! SR2MUX[14]~14_combout $end
$var wire 1 d! ALU_Out~28_combout $end
$var wire 1 e! SR1_In[14]~input_o $end
$var wire 1 f! ADD[13]~27 $end
$var wire 1 g! ADD[14]~28_combout $end
$var wire 1 h! ALU_Out~29_combout $end
$var wire 1 i! SR1_In[15]~input_o $end
$var wire 1 j! SR2_In[15]~input_o $end
$var wire 1 k! SR2MUX[15]~15_combout $end
$var wire 1 l! ADD[14]~29 $end
$var wire 1 m! ADD[15]~30_combout $end
$var wire 1 n! ALU_Out~30_combout $end
$var wire 1 o! ALU_Out~31_combout $end
$upscope $end
$upscope $end
$enddefinitions $end
#0
$dumpvars
b0 !
b1001110000000000 "
b111001110011100 #
0$
b1100110100010100 %
05
04
03
02
11
10
0/
1.
0-
0,
0+
0*
0)
0(
1'
0&
06
17
x8
19
1:
1;
0<
0=
0>
0?
0@
1A
1B
1C
0D
0E
1F
0G
0H
0I
0J
1K
1L
0M
1N
0O
0P
0Q
0R
0S
0T
1U
0V
0W
0X
0Y
0Z
0[
0\
0]
0^
0_
0`
0a
0b
0c
0d
0e
0f
0g
0h
1i
1j
0k
1l
1m
0n
0o
0p
1q
0r
0s
0t
0u
1v
0w
0x
1y
0z
1{
1|
0}
1~
0!!
1"!
0#!
0$!
0%!
1&!
1'!
0(!
1)!
0*!
0+!
0,!
1-!
0.!
0/!
00!
01!
02!
03!
14!
05!
16!
17!
18!
19!
1:!
1;!
0<!
0=!
0>!
1?!
0@!
0A!
0B!
1C!
0D!
0E!
0F!
1G!
1H!
0I!
0J!
0K!
0L!
1M!
1N!
0O!
1P!
0Q!
0R!
0S!
1T!
0U!
0V!
0W!
0X!
0Y!
0Z!
0[!
0\!
0]!
1^!
1_!
0`!
0a!
1b!
1c!
0d!
1e!
0f!
1g!
1h!
0i!
1j!
1k!
1l!
0m!
0n!
0o!
$end
#50000
b1001110000000100 "
b1001110000000110 "
b1001110000000111 "
b11001110011100 #
b1001110011100 #
b1110011100 #
b1110011000 #
b1110011010 #
b100110100010100 %
b110100010100 %
b10110100010100 %
b11110100010100 %
b11100100010100 %
b11100000010100 %
b11100001010100 %
b11100001000100 %
b11100001001100 %
b11100001001101 %
1Z
1s
0y
1+!
08!
0G!
1U!
1[!
0b!
0j!
1a
0i
0T!
0^!
0e!
1[
1c
1k
1\
1t
0{
1,!
09!
0H!
1V!
1\!
0c!
0k!
1f
0v
1n
0_!
1X!
1f!
1`!
0g!
1^
0~
1.!
0C!
1<!
0P!
1K!
1_!
0X!
0l!
1m!
1h
1p
1Z!
1a!
0h!
0U
1T
1S
1I
1H
1J!
1D!
1W!
1Q!
0f!
0`!
0m!
14
13
1)
1(
0'
1`
0"!
10!
1>!
1L!
0Z!
1o!
1V
0S
1Q
1O
1M
0K
1G
0K!
0_!
1X!
1g!
15
01
1/
1-
1+
0)
1&
1E!
1S!
0a!
0o!
0V
0T
1R
1P
1f!
1`!
1,
1*
0(
0&
0L!
1Z!
1h!
1U
1S
0Q
0g!
0+
1)
1'
1a!
1T
1(
0h!
0U
0'
#62500
b1001110000010111 "
1z
#100000
b1001110000011111 "
b1000001110011010 #
b1000011110011010 #
b1000011111011010 #
b1000011111111010 #
b1000011111101010 #
b1000011111100010 #
b11100011001101 %
b11100011001001 %
b1001110000011101 "
b1010011111100010 #
b1011011111100010 #
b1011011111100110 #
b1011100011001001 %
b1011110011001001 %
b1011110111001001 %
b1011110111000001 %
b1011110111000000 %
0Z
0j
0s
11!
18!
1G!
1j!
1i
0q
0|
1%!
1*!
1F!
1T!
1^!
1i!
0c
1r
0\
0l
0t
12!
19!
1H!
1k!
1v
0n
1}
1w
0&!
1~
0-!
0'!
15!
0.!
1K!
1_!
0X!
0f!
0`!
1m!
0^
0v
1n
0;!
1C!
0<!
1P!
0K!
0m!
0~
1-!
1'!
1.!
1`!
1g!
0p
1x
1"!
0)!
00!
1L!
0Z!
0a!
1o!
1V
0T
0S
1Q
0M
0L
1K
1J
0I
0w
1<!
0J!
0D!
0W!
0Q!
0.!
03
12
11
00
0/
1+
0)
0(
1&
0`
1p
0>!
0L!
0o!
0"!
1)!
10!
1a!
1h!
1U
1T
1M
1L
0K
0V
0Q
0O
1I
0G
1K!
1X!
05
13
0-
0+
0&
01
10
1/
1(
1'
0x
1>!
0E!
0S!
00!
0M
0R
0P
1O
0J
02
1-
0,
0*
0/
1L!
1Z!
1S
1Q
1+
1)
#125000
1$
b1001110000001101 "
1Y
0z
0k!
0\!
0V!
0N!
0H!
09!
02!
0,!
1t
1l
1\
1m!
0`!
0X!
1W!
1Q!
0K!
0<!
06!
05!
1.!
1w
1v
0n
1^
0_!
1X!
1;!
16!
0}
0w
1o!
0a!
0Z!
1S!
0L!
0>!
07!
10!
1x
0p
1`
1G
0I
1J
1M
0N
0O
0Q
1R
0S
0T
1V
1f!
1`!
0C!
1<!
1~
1&
0(
0)
1*
0+
0-
0.
1/
12
03
15
1Z!
17!
0x
0J
1N
1S
0g!
1J!
1D!
1)
1.
02
1a!
1>!
1"!
1K
1O
1T
0P!
1K!
1(
1-
11
0h!
1E!
1P
0U
0Q!
0'
1,
1L!
1Q
1+
0S!
0R
0*
#150000
b1011011111100111 #
b1011010111000000 %
b1011011111000000 %
b1011011111000010 %
b1001110000001001 "
b1011011111100101 #
b1011011111000101 #
b1011011111010101 #
b1001110000001011 "
b1001011111010101 #
b1011001111000010 %
b1011001111000011 %
1c
0k
1Z
1b
1@!
0G!
0M!
1]
0a
1|
0%!
0^!
1d
0l
1_
1e
0^
0f
1&!
0~
0'!
0`!
0m
0v
1n
1'!
0`
0h
0"!
0)!
0a!
0T
0L
0K
0H
0G
1v
0n
1}
1w
05
04
01
00
0(
1p
1)!
1L
1I
0}
0w
0&!
1~
13
10
0p
1x
1J
0I
1&!
0~
0'!
03
12
0x
1"!
1K
0J
1'!
02
11
0"!
0)!
0L
0K
01
00
1)!
1L
10
#187500
b1001110000011011 "
1z
1k!
1c!
1\!
1V!
1N!
1H!
1A!
19!
12!
1,!
1$!
1{
0m!
1g!
1`!
1_!
0X!
1Q!
1P!
0K!
0J!
0D!
1C!
0<!
0;!
06!
15!
0.!
0-!
0'!
1~
0f!
0`!
0W!
0Q!
1K!
1D!
1<!
16!
1.!
0o!
1h!
1a!
0Z!
1S!
0L!
0E!
0>!
07!
00!
0)!
1"!
1K
0L
0M
0N
0O
0P
0Q
1R
0S
1T
1U
0V
1l!
0g!
1X!
0&
1'
1(
0)
1*
0+
0,
0-
0.
0/
00
11
0a!
0S!
1L!
1E!
1>!
17!
10!
1M
1N
1O
1P
1Q
0R
0T
1m!
0(
0*
1+
1,
1-
1.
1/
0h!
1Z!
1S
0U
0'
1)
1o!
1V
1&
#200000
b1001111111010101 #
b1001110111010101 #
b1001110101010101 #
b1011001111010011 %
b1110101010101 #
b1110101011101 #
b1011001111010111 %
b110101011101 #
b11001111010111 %
b110101011100 #
b11101111010111 %
b11101111010101 %
b1001110000011111 "
b110101111100 #
b110101101100 #
b1001110000011101 "
b10110101101100 #
0c
1k
0b
1j
1y
1M!
0j!
0]
1q
0|
1%!
04!
0?!
1O!
0T!
1^!
0i!
0d
1l
0_
0e
1^
1w
0~
1'!
06!
0D!
1Q!
0X!
1`!
0m!
1m
1n
1`
1x
0"!
1)!
07!
0E!
1S!
0Z!
1a!
0o!
0V
1T
0S
1R
0P
0N
1L
0K
1J
1G
0n
15
12
01
10
0.
0,
1*
0)
1(
0&
1p
1I
13
0p
0I
03
#250000
b1 !
b11101111110101 %
b1001110000011100 "
b111101111110101 %
b110101111110101 %
b110101110110101 %
b1001110000010100 "
b110101100110101 %
b10110101101000 #
b110101100111101 %
0$
b110100100111101 %
b110110100111101 %
b1001110000000100 "
b10010101101000 #
b10010111101000 #
b110110100101101 %
b1010010111101000 #
b1010010111100000 #
b110010100101101 %
b110010100101111 %
b1001110000000000 "
b1001110000000010 "
b1000010111100000 #
0i
0q
14!
0O!
0^!
1i!
0[
1c
0k
0r
0z
1b
1s
0y
1#!
0+!
01!
0@!
1G!
0M!
0U!
1b!
1W
0Y
0v
1n
0w
16!
0Q!
0`!
1m!
1d
0k!
0V!
0N!
0A!
02!
0,!
0{
1n!
1d!
1]!
1Y!
1R!
1I!
1B!
1=!
13!
1/!
1(!
1!!
1u
1o
0x
0S!
0a!
0L!
0>!
00!
0)!
0`
0G
0L
0M
0O
0Q
0T
0R
0J
1}
1w
1g
1f
0n!
0m!
0Y!
0_!
1X!
0R!
1W!
1Q!
1J!
1D!
0B!
06!
03!
0/!
0.!
0!!
0&!
1~
02
0*
0(
0+
0-
0/
00
05
17!
1o!
1L!
1>!
10!
1)!
1L
1M
1O
1Q
1V
1N
0~
1f!
1`!
0X!
0K!
0'!
1.
1&
1+
1-
1/
10
0o!
07!
00!
0M
0N
0V
0l!
1g!
0&
0.
0/
1m!
#300000
b1000010011100000 #
b1000000011100000 #
b110010100101110 %
b1000001011100000 #
b110010100101010 %
b110010100001010 %
b1001110000000011 "
b110010110001010 %
b1000001011100100 #
b110010110000010 %
b110011110000010 %
b110001110000010 %
b1000101011100100 #
b1000101001100100 #
b110001110010010 %
b101001100100 #
b110001110010000 %
b1001110000000111 "
1[
1k
0Z
0b
0j
0s
1y
0#!
11!
1@!
0G!
1i
04!
0:!
1?!
0F!
1O!
0i!
0\
0l
0d
0t
1{
0$!
12!
1A!
0H!
1v
0n
1;!
16!
0<!
0J!
0D!
0P!
1K!
0W!
0Q!
0m!
1p
0>!
0L!
0Q
0O
1I
0^
0o
0v
1n
0g
0f
0u
1!!
1~
0(!
1-!
1'!
0;!
06!
13!
1D!
1B!
0I!
0C!
1<!
1W!
1Q!
1X!
13
0-
0+
0w
05!
1.!
1C!
0<!
0D!
0X!
0p
0)!
1E!
1P
0L
0I
1;!
16!
1D!
03
00
1,
0C!
1<!
0D!
#312500
b1001110000010111 "
1z
#350000
b101000100100 #
b110001010010000 %
b101000100110 #
b1110001010010000 %
b101000100111 #
b101000110111 #
b101000111111 #
b1110101010010000 %
b1001110000010101 "
b10101000111111 #
b1110101010010001 %
b1110101000010001 %
b1110101000011001 %
b1110100000011001 %
b1110110000011001 %
b10001000111111 #
b10001010111111 #
b1110110000001001 %
b1010001010111111 #
b1110110000001011 %
0c
1Z
1b
1s
0y
01!
08!
0@!
1G!
1M!
1j!
1]
1a
1q
1|
0*!
14!
0O!
1^!
1i!
1d
1\
1t
0{
02!
09!
0A!
1H!
1N!
1k!
1^
1f
1w
1&!
0~
0.!
0;!
06!
0Q!
0f!
0`!
1m!
1"!
17!
1a!
1T
1N
1K
1g
0m
0f
1_
1e
0^
0}
0w
1u
0!!
0&!
1~
1;!
16!
03!
0=!
1J!
1D!
0B!
1P!
0K!
1I!
1R!
1Q!
1n!
0m!
0-!
0'!
1l!
0g!
11
1.
1(
1v
0n
1f
1&!
0~
1-!
1'!
0<!
0P!
1K!
0W!
0Q!
1.!
1m!
1h
1`
1x
0"!
07!
0E!
1o!
1V
0P
0N
0K
1J
1G
1H
1w
0-!
0'!
0.!
1W!
1Q!
1X!
14
15
12
01
0.
0,
1&
1.!
0X!
#375000
1$
b1001110000000101 "
1Y
0z
0k!
0c!
0\!
0N!
0H!
0t
1l
0d
0n!
0m!
0l!
1g!
0d!
1f!
1`!
0]!
0R!
0Q!
0K!
0I!
0w
0u
1o
1n
0g
0f
1m!
0g!
0o!
0a!
0x
1p
0h
0H
1I
0J
0T
0V
0&
0(
02
13
04
#400000
b1110001010111111 #
b1111001010111111 #
b1010110000001011 %
b1011110000001011 %
b1011110001001011 %
b1111011010111111 #
b1011110001101011 %
b1001110000000100 "
b1111011010111011 #
b1111011011111011 #
b1011110101101011 %
b11110101101011 %
b11110101101010 %
b11110101100010 %
b11111101100010 %
b1111111011111011 #
b1111111001111011 #
b11111101110010 %
b111111001111011 #
b11111101110000 %
0[
0Z
0b
0s
1y
1#!
1+!
18!
1@!
1U!
0b!
0j!
0i
1*!
04!
1F!
1O!
1T!
1e!
0i!
0\
0n
15!
0.!
06!
1K!
1Q!
1X!
1g!
0m!
0p
0I
0_
0e
1^
16!
03
1m
1f
0`
0G
0v
1n
05
1}
1w
0&!
1~
1-!
1'!
05!
1.!
06!
#437500
b1001110000010100 "
1z
1k!
1c!
1\!
1V!
1N!
1H!
1A!
19!
12!
1,!
1$!
1{
1n!
1m!
1l!
0g!
1d!
0f!
0`!
1]!
1Y!
1_!
0X!
1R!
0W!
0Q!
1P!
0K!
1I!
0J!
0D!
1B!
1=!
1<!
16!
13!
1/!
15!
0.!
1(!
0-!
0'!
1!!
1&!
0~
0m!
1g!
1`!
1X!
1Q!
1K!
0;!
06!
1.!
1'!
1h!
1a!
1Z!
1S!
1L!
1E!
10!
1)!
1"!
1K
1L
1M
1P
1Q
1R
1S
1T
1U
1C!
0<!
1'
1(
1)
1*
1+
1,
1/
10
11
1D!
#450000
b111111001011011 #
b111111101011011 #
b11111101110100 %
b111111101011001 #
b111111101011000 #
b111111101001000 #
b11011101110100 %
b11011111110100 %
b11001111110100 %
b111001111110100 %
b111101101001000 #
b111101101001100 #
b111001111110101 %
b111001111111101 %
b111000111111101 %
1Z
1j
1s
11!
0@!
0G!
0M!
1b!
0]
0a
1i
0|
0%!
1:!
0F!
0^
0f
1v
0n
0&!
1~
0'!
1<!
0K!
1p
0"!
0)!
1>!
0L!
0Q
1O
0L
0K
1I
0}
0w
1-!
1'!
13
01
00
1-
0+
1&!
0~
0.!
0-!
0'!
1.!
#500000
b11 !
b10 !
b1001110000010110 "
0$
b1001110000010111 "
b111101100001100 #
b111001100001100 #
b111001110001100 #
b1111001110001100 #
b1001110000000111 "
b111000101111101 %
b11000101111101 %
b1111011110001100 #
b11000101111100 %
b11000101110100 %
0Y
0Z
0s
01!
0b!
0*!
14!
1F!
0O!
1i!
1[
1c
0z
0W
1X
0k!
0c!
0N!
0H!
0A!
02!
0.!
16!
1K!
0Q!
1m!
1u
1g
0h!
0a!
0Z!
0E!
0>!
1)!
1"!
0p
1`
1G
0I
1K
1L
0O
0P
0S
0T
0U
0m!
0g!
1W!
1Q!
0K!
0D!
06!
0'
0(
0)
0,
0-
10
11
03
15
1h
1H
0X!
14
#550000
b1001110000001111 "
b1111010110001100 #
b1011010110001100 #
b10000101110100 %
b10000100110100 %
b10000100010100 %
b1010000100010100 %
b1010000100000100 %
b1011010110101100 #
b1011010010101100 #
b1010000100000000 %
b1011010010101101 #
b1011010010111101 #
b1011010010111001 #
b1001110000001101 "
b1001110000001100 "
b1011110010111001 #
b1011110000111001 #
b1010000110000000 %
b1011100000111001 #
b1010000110000001 %
b1010000110001001 %
1Z
0j
1s
0y
0#!
0+!
11!
0U!
1j!
1]
0i
1|
1%!
04!
0:!
0?!
0F!
1O!
0e!
0[
0c
1r
1\
0l
1t
0{
0$!
0,!
12!
0V!
1k!
1_
1^
0v
1n
1~
1'!
1;!
16!
0<!
1J!
1D!
0P!
1K!
0W!
0Q!
0l!
1g!
1p
0"!
0)!
17!
1>!
1E!
1L!
0S!
1h!
1U
0R
1Q
1P
1O
1N
0L
0K
1I
1e
0^
0n
0~
0'!
05!
1.!
0;!
06!
0C!
1<!
0K!
1W!
1Q!
13
01
00
1.
1-
1,
1+
0*
1'
0`
0G
1f
1;!
16!
1C!
0<!
0D!
0_!
1X!
05
0C!
1<!
1D!
0`!
0D!
#562500
b1001110000011100 "
1z
#600000
b1011100000110001 #
b1010000110001011 %
b1011100000110011 #
b1010100110001011 %
b11100000110011 #
b1110100110001011 %
b1001110000010100 "
b1111100110001011 %
b1111100111001011 %
b1111100111011011 %
b11100000010011 #
b1111100111011111 %
b11100000010010 #
b11100000000010 #
b1001110000010101 "
b11000000000010 #
b1111100101011111 %
b11010000000010 #
b1111100101011110 %
b1111100101010110 %
1[
0r
0Z
1b
1j
0s
1y
1+!
01!
1M!
1U!
1b!
0]
1a
0q
0|
0%!
1F!
0O!
0i!
0\
0t
1d
1l
1{
1,!
02!
1N!
1V!
1c!
0_
0e
1^
0m
0f
1}
1w
0&!
1~
1-!
1'!
1K!
0Q!
1m!
0h
1x
1"!
1)!
0L!
1S!
1o!
1V
1R
0Q
1L
1K
1J
0H
0^
0w
1v
06!
1Q!
1_!
0X!
1l!
0g!
0'!
04
12
11
10
0+
1*
1&
1`
1G
1w
1`!
0m!
15
#625000
1$
b1001110000000101 "
1Y
0z
0k!
0c!
0\!
0V!
0N!
09!
0,!
0{
0d
1\
1m!
0l!
1g!
0`!
0_!
1X!
0Q!
0<!
0.!
0~
1m
1f
1^
0m!
1f!
1`!
0v
1n
0g!
0w
#650000
b1010000000010 #
b1111100001010110 %
b1111110001010110 %
b1010001000010 #
b101010001000010 #
b111110001010110 %
b101010101000010 #
b101010101000110 #
b101010111000110 #
b111010001010110 %
b101010111100110 #
b111010001010010 %
b101010111100111 #
b1001110000000100 "
b101110111100111 #
b101100111100111 #
b111010001010011 %
0[
1Z
0j
08!
1G!
0M!
0j!
1]
1i
1%!
1*!
14!
1:!
0F!
1O!
0^!
1e!
0\
1_
1e
0^
1v
0n
1'!
1.!
16!
1<!
0K!
1Q!
0`!
1g!
0p
0)!
00!
07!
0>!
1L!
0S!
1a!
0h!
0U
1T
0R
1Q
0O
0N
0M
0L
0I
0e
1^
0m
0f
1w
03
00
0/
0.
0-
1+
0*
1(
0'
0`
0G
1m
1f
1n
05
0n
#687500
b1001110000010100 "
1z
1k!
1c!
1\!
1V!
1N!
1H!
1A!
19!
12!
1,!
1$!
1{
1m!
1l!
0g!
1`!
1_!
0X!
0W!
0Q!
1K!
1D!
1C!
0<!
0;!
06!
15!
0.!
0-!
0'!
1~
0m!
0f!
0`!
1X!
0J!
0D!
1<!
16!
1.!
1g!
1P!
0K!
1Q!
#700000
b1001110000010000 "
b111010001010001 %
b101100111100101 #
b111010001000001 %
b111010011000001 %
b101100110100101 #
b1100110100101 #
b1100010100101 #
b1100010100001 #
b1100000100001 #
b1110000100001 #
0a
0i
0*!
04!
0:!
1F!
0e!
0b
0y
11!
0k
0f
0v
1n
0.!
06!
0<!
1K!
0g!
0l
1h
1p
10!
17!
1>!
0L!
1h!
1U
0Q
1O
1N
1M
1I
1H
0w
0n
14
13
1/
1.
1-
0+
1'
#750000
b110000100001 #
b11 !
b111010011100001 %
b110000101001 #
b1000110000101001 #
b11010011100001 %
b1001110000011000 "
b10010011100001 %
b10010011101001 %
0$
b10010111101001 %
b10000111101001 %
b1010000111101001 %
b1010100111101001 %
b1000110000101000 #
b1001110000001000 "
b1010100111111001 %
b1000110001101000 #
b1100110001101000 #
b1100110011101000 #
1r
0z
1s
1y
1#!
18!
0G!
1M!
0U!
0b!
1j!
1W
0]
1q
1*!
14!
0T!
1e!
1i!
0Y
1t
0c!
0V!
0H!
0A!
0_
0^
1w
1.!
16!
0X!
1g!
1m!
1\
0a!
1S!
1L!
0E!
0>!
1)!
0"!
0p
0h
1`
1G
0H
0I
0K
1L
0O
0P
1Q
1R
0T
0}
0w
0g!
0_!
1X!
0K!
1J!
1D!
1^
0(
1*
1+
0,
0-
10
01
03
04
15
0`
0G
1&!
0~
1f!
1`!
0P!
1K!
05
1'!
0l!
1g!
0Q!
0m!
#800000
b1000100111111001 %
b1000101111111001 %
b1001110000001010 "
b1000101110111001 %
b1100110011001000 #
b1000101110111101 %
b1001110000001110 "
b1000101110111111 %
b1100110111001000 #
b1100100111001000 #
b1101100111001000 #
b1000101110011111 %
b1101100111000000 #
b1001110000000110 "
b1000101010011111 %
b1000111010011111 %
b1101100110000000 #
b1001100110000000 #
b1001100100000000 #
0q
0%!
0*!
04!
1:!
0F!
1T!
0e!
1c
1k
0r
1b
1j
0#!
0+!
08!
1@!
1G!
0[!
1}
1w
0'!
0.!
06!
1<!
0K!
1_!
0X!
0g!
1d
1l
0$!
0,!
09!
1A!
1H!
0\!
0x
0)!
00!
07!
1>!
0L!
1Z!
0h!
0U
1S
0Q
1O
0N
0M
0L
0J
0&!
1~
1f
1n
1-!
1'!
05!
1.!
0<!
0J!
0D!
1K!
02
00
0/
0.
1-
0+
1)
0'
0'!
0.!
1;!
16!
1P!
0K!
0C!
1<!
1Q!
1J!
1D!
0P!
1K!
0Q!
#812500
b1001110000010110 "
1z
#850000
b1001101100000000 #
b1001101100010000 #
b1001110000010111 "
b1001001100010000 #
b1001001100010100 #
b111010011111 %
b1001001100010101 #
b10111010011111 %
b10110010011111 %
b1001110000010101 "
b1001001100110101 #
b10110010011101 %
b1001001000110101 #
b1001110000011101 "
b1001001001110101 #
b1001001011110101 #
0b
0@!
1[!
0j!
1[
0c
1r
1]
1i
1|
1%!
1*!
14!
0:!
1?!
0O!
0d
0A!
1\!
0k!
1_
1e
0^
1v
0n
1&!
0~
1'!
1.!
0;!
06!
0<!
0J!
0D!
1W!
1Q!
1p
1"!
1)!
10!
17!
0>!
1E!
0S!
0R
1P
0O
1N
1M
1L
1K
1I
1J!
1D!
0f!
0`!
1m!
0}
0w
0-!
0'!
1<!
1P!
0K!
0_!
1X!
13
11
10
1/
1.
0-
1,
0*
1`
1G
0P!
1K!
1g!
1~
15!
0.!
0W!
0Q!
1f!
1`!
15
1W!
1Q!
16!
1_!
0X!
0g!
0_!
1X!
0f!
0`!
1f!
1`!
1g!
0g!
#875000
1$
b1001110000001101 "
1Y
0z
0\!
0N!
0H!
02!
0{
0`!
0Q!
0K!
06!
0~
#900000
b10110010011100 %
b1001001011110111 #
b10110000011100 %
b11110000011100 %
b11110000010100 %
b11010000010100 %
b11010001010100 %
b1001110000001001 "
b1001011011110111 #
b11010001110100 %
b1001011011111111 #
b11010101110100 %
b1101011011111111 #
b1101011011101111 #
b1101111011101111 #
b1101111011101011 #
b1010101110100 %
b1011101110100 %
b1001110000001011 "
b1101111011001011 #
b1001110000000011 "
1c
0k
0r
1a
0i
1q
0|
0%!
1F!
1O!
1e!
0Z
0s
1#!
1+!
01!
18!
1@!
0M!
1U!
0[!
1d
0l
0t
0m
0f
0v
1n
1w
0&!
1~
1-!
1'!
1K!
1Q!
1g!
1h
0p
1x
0"!
0)!
1L!
1S!
1h!
1U
1R
1Q
0L
0K
1J
0I
1H
1f
1}
0'!
05!
1.!
14
03
12
01
00
1+
1*
1'
0~
1;!
16!
0<!
