NZP_Logic/simulation/qsim/NZP_Logic.msim.vcd
$comment
	File created using the following command:
		vcd file NZP_Logic.msim.vcd -direction
$end
$date
	Sat Mar 16 03:26:38 2019
$end
$version
	ModelSim Version 10.5b
$end
$timescale
	1ps
$end

$scope module NZP_Logic_vlg_vec_tst $end
$var reg 16 ! Bus_In [15:0] $end
$var reg 1 " Clk $end
$var reg 1 # Load_NZP_Logic $end
$var reg 1 $ Reset $end
$var wire 1 % N $end
$var wire 1 & P $end
$var wire 1 ' Z $end

$scope module i1 $end
$var wire 1 ( gnd $end
$var wire 1 ) vcc $end
$var wire 1 * unknown $end
$var tri1 1 + devclrn $end
$var tri1 1 , devpor $end
$var tri1 1 - devoe $end
$var wire 1 . N~output_o $end
$var wire 1 / Z~output_o $end
$var wire 1 0 P~output_o $end
$var wire 1 1 Clk~input_o $end
$var wire 1 2 Clk~inputclkctrl_outclk $end
$var wire 1 3 Bus_In[15]~input_o $end
$var wire 1 4 Reset~input_o $end
$var wire 1 5 Logic|Switch_15|Q~0_combout $end
$var wire 1 6 Load_NZP_Logic~input_o $end
$var wire 1 7 Logic|Switch_15|Q~1_combout $end
$var wire 1 8 Logic|Switch_15|Q~q $end
$var wire 1 9 Bus_In[12]~input_o $end
$var wire 1 : Logic|Switch_12|Q~0_combout $end
$var wire 1 ; Logic|Switch_12|Q~q $end
$var wire 1 < Bus_In[14]~input_o $end
$var wire 1 = Logic|Switch_14|Q~0_combout $end
$var wire 1 > Logic|Switch_14|Q~q $end
$var wire 1 ? Bus_In[13]~input_o $end
$var wire 1 @ Logic|Switch_13|Q~0_combout $end
$var wire 1 A Logic|Switch_13|Q~q $end
$var wire 1 B Bus_In[11]~input_o $end
$var wire 1 C Logic|Switch_11|Q~0_combout $end
$var wire 1 D Logic|Switch_11|Q~q $end
$var wire 1 E P~0_combout $end
$var wire 1 F Bus_In[4]~input_o $end
$var wire 1 G Logic|Switch_4|Q~0_combout $end
$var wire 1 H Logic|Switch_4|Q~q $end
$var wire 1 I Bus_In[3]~input_o $end
$var wire 1 J Logic|Switch_3|Q~0_combout $end
$var wire 1 K Logic|Switch_3|Q~q $end
$var wire 1 L Bus_In[5]~input_o $end
$var wire 1 M Logic|Switch_5|Q~0_combout $end
$var wire 1 N Logic|Switch_5|Q~q $end
$var wire 1 O Bus_In[6]~input_o $end
$var wire 1 P Logic|Switch_6|Q~0_combout $end
$var wire 1 Q Logic|Switch_6|Q~q $end
$var wire 1 R P~2_combout $end
$var wire 1 S Bus_In[8]~input_o $end
$var wire 1 T Logic|Switch_8|Q~0_combout $end
$var wire 1 U Logic|Switch_8|Q~q $end
$var wire 1 V Bus_In[9]~input_o $end
$var wire 1 W Logic|Switch_9|Q~0_combout $end
$var wire 1 X Logic|Switch_9|Q~q $end
$var wire 1 Y Bus_In[10]~input_o $end
$var wire 1 Z Logic|Switch_10|Q~0_combout $end
$var wire 1 [ Logic|Switch_10|Q~q $end
$var wire 1 \ Bus_In[7]~input_o $end
$var wire 1 ] Logic|Switch_7|Q~0_combout $end
$var wire 1 ^ Logic|Switch_7|Q~q $end
$var wire 1 _ P~1_combout $end
$var wire 1 ` Bus_In[2]~input_o $end
$var wire 1 a Logic|Switch_2|Q~0_combout $end
$var wire 1 b Logic|Switch_2|Q~q $end
$var wire 1 c Bus_In[1]~input_o $end
$var wire 1 d Logic|Switch_1|Q~0_combout $end
$var wire 1 e Logic|Switch_1|Q~q $end
$var wire 1 f Bus_In[0]~input_o $end
$var wire 1 g Logic|Switch_0|Q~0_combout $end
$var wire 1 h Logic|Switch_0|Q~q $end
$var wire 1 i P~3_combout $end
$var wire 1 j P~4_combout $end
$var wire 1 k Z~0_combout $end
$var wire 1 l P~5_combout $end
$upscope $end
$upscope $end
$enddefinitions $end
#0
$dumpvars
b111100110011001 !
0"
0#
0$
0%
0&
1'
0(
1)
x*
1+
1,
1-
0.
1/
00
01
02
03
04
05
06
07
08
19
1:
0;
1<
1=
0>
1?
1@
0A
1B
1C
0D
1E
1F
1G
0H
1I
1J
0K
0L
0M
0N
0O
0P
0Q
1R
1S
1T
0U
0V
0W
0X
0Y
0Z
0[
1\
1]
0^
1_
0`
0a
0b
0c
0d
0e
1f
1g
0h
1i
1j
0k
0l
$end
#30000
1"
11
12
#40000
b110100110011001 !
b110101110011001 !
b110101100011001 !
b110101101011001 !
b110101101111001 !
b110101101101001 !
b110101101100001 !
b110101101100101 !
b110101101100111 !
1c
1`
0I
0F
1L
1O
0\
1V
09
1d
1a
0J
0G
1M
1P
0]
1W
0:
#60000
0"
01
02
#80000
b1110101101100111 !
b1110101101100110 !
b1111101101100110 !
b1111100101100110 !
b1111100111100110 !
b1111100110100110 !
b1111100110000110 !
0f
0L
0O
1\
0V
19
13
0g
0M
0P
1]
0W
1:
15
#90000
1"
11
12
#120000
b1011100110000110 !
b1001100110000110 !
b1001000110000110 !
b1001000010000110 !
b1001000010001110 !
b1001000010001010 !
b1001000010001011 !
b1000000010001011 !
b1000000011001011 !
0"
1f
0`
1I
1O
0S
0B
09
0?
0<
01
02
1g
0a
1J
1P
0T
0C
0:
0@
0=
#150000
1"
11
12
#160000
b1000000011011011 !
b1000000011011001 !
b11011001 !
b1011011001 !
b1001011001 !
b1001111001 !
b100001001111001 !
b100001101111001 !
b101001101111001 !
b101001100111001 !
0c
1F
1L
0O
0\
1S
1V
19
1<
03
0d
1G
1M
0P
0]
1T
1W
1:
1=
05
#170000
1#
16
17
#180000
0"
01
02
1;
1>
1H
1K
1N
1U
1X
1h
0E
0R
0_
0i
0j
1k
1l
10
0/
0'
1&
#200000
b111001100111001 !
b111001100111000 !
b111001100101000 !
b111001100101010 !
b111001110101010 !
b111001110001010 !
b110001110001010 !
b110001111001010 !
0f
1c
0F
0L
1O
1\
09
1?
0g
1d
0G
0M
1P
1]
0:
1@
#210000
1"
11
12
#240000
b110011111001010 !
b110011111000010 !
b100011111000010 !
b100011111000011 !
b100011111100011 !
0"
1f
0I
1L
1Y
0?
01
02
1g
0J
1M
1Z
0@
0;
1A
0H
0N
1Q
1^
1e
0h
#270000
1$
1"
14
11
12
0g
0d
0]
0Z
0W
0T
0P
0M
0=
#280000
b100111111100011 !
b100111111100111 !
b111111100111 !
b111011100111 !
b111011110111 !
b1111011110111 !
b1111010110111 !
b1111010111111 !
b11111010111111 !
b11111010111110 !
b11111010011110 !
0f
1`
1I
1F
0L
0O
0S
1B
19
1?
0<
#300000
0#
0"
06
01
02
0>
0A
0K
0Q
0U
0X
0^
0e
1E
1R
1_
1i
1j
0k
0l
00
1/
1'
0&
#320000
b11111010011100 !
b11111000011100 !
b11111100011100 !
b11111100010100 !
b1111100010100 !
0c
0I
0\
1S
0?
#330000
0$
1"
04
11
12
07
1a
1Z
1W
1T
1G
1C
1:
#360000
b1101100010100 !
b1001100010100 !
b101001100010100 !
b101001100000100 !
b100001100000100 !
b100001100100100 !
b100001100100110 !
b100001000100110 !
b110001000100110 !
0"
1c
0F
1L
0S
0Y
0B
09
1?
1<
01
02
1d
0G
1M
0T
0Z
0C
0:
1@
1=
#390000
1"
11
12
#400000
b1110001000100110 !
b1110000000100110 !
b1110000000100111 !
b1110000010100111 !
b1110000010101111 !
b1110100010101111 !
b1010100010101111 !
b1011100010101111 !
b1011100010001111 !
b1011100010001101 !
b1001100010001101 !
1f
0c
1I
0L
1\
0V
1B
19
0?
0<
13
1g
0d
1J
0M
1]
0W
1C
1:
0@
0=
15
#420000
0"
01
02
#440000
b1001100011001101 !
b1001110011001101 !
b1001110011011101 !
b1001110111011101 !
b1110111011101 !
b1111111011101 !
b1011111011101 !
b101011111011101 !
b100011111011101 !
b100011111011111 !
1c
1F
1O
1S
1V
1Y
0B
09
1<
03
1d
1G
1P
1T
1W
1Z
0C
0:
1=
05
#450000
1#
1"
16
11
12
17
#480000
b100011111010111 !
b100011110010111 !
b100011110000111 !
b1100011110000111 !
b1100010110000111 !
b1100010110000101 !
0"
0c
0I
0F
0O
0V
13
01
02
0d
0J
0G
0P
0W
15
1>
1H
1K
1Q
1U
1X
1[
1^
1b
1e
1h
0E
0R
0_
0i
0j
1k
1l
10
0/
0'
1&
#510000
1"
11
12
#520000
b1100110110000101 !
b1100110110001101 !
b1100111110001101 !
1I
1V
1B
1J
1W
1C
#540000
0"
01
02
1D
0H
0Q
0e
18
1.
1%
0l
00
0&
#560000
b1100111110001001 !
b1100111100001001 !
b1110111100001001 !
b1110111101001001 !
b110111101001001 !
b110111101001011 !
b110111101000011 !
b110110101000011 !
1c
0`
0I
1O
0\
0V
1?
03
1d
0a
0J
1P
0]
0W
1@
05
#570000
1"
11
12
#600000
b110110101000010 !
b110100101000010 !
b10100101000010 !
b11100101000010 !
b11000101000010 !
b11000111000010 !
b1000111000010 !
b1000110000010 !
b1000110000000 !
b1000110001000 !
0"
0f
0c
1I
0O
1\
0Y
0B
19
0?
0<
01
02
0g
0d
1J
0P
1]
0Z
0C
1:
0@
0=
1A
0K
1Q
0X
0^
0b
1e
08
0.
0%
1l
10
1&
#630000
1"
11
12
#640000
b1000110101000 !
b1000110111000 !
b1000110111100 !
b1001110111100 !
b1011110111100 !
b101011110111100 !
b101111110111100 !
b101111100111100 !
b111111100111100 !
b111111101111100 !
b111111101111110 !
1c
1`
1F
1L
1O
0\
1V
1Y
1B
1?
1<
1d
1a
1G
1M
1P
0]
1W
1Z
1C
1@
1=
#660000
0"
01
02
1;
1H
1K
1N
1X
1b
0h
#680000
b111111001111110 !
b1111111001111110 !
b1110111001111110 !
b1110111001110110 !
b1110111001010110 !
b1110111001000110 !
b1110101001000110 !
b1100101001000110 !
b1100101001000100 !
0c
0I
0F
0L
0S
0Y
09
0?
13
0d
0J
0G
0M
0T
0Z
0:
0@
15
#690000
1"
11
12
#720000
b1100101001000101 !
b1100101001000001 !
b1100100001000001 !
b1000100001000001 !
b1000000001000001 !
b1000000001001001 !
b1010000001001001 !
b1010000001001011 !
0"
1f
1c
0`
1I
0V
0B
1?
0<
01
02
1g
1d
0a
1J
0W
0C
1@
0=
0;
0A
0H
0K
0N
0U
0[
0e
18
1.
1%
0l
00
0&
#750000
1"
11
12
#760000
b1010000011001011 !
b1010000010001011 !
b1011000010001011 !
b1011000010101011 !
b1011000010101010 !
b1111000010101010 !
b1111100010101010 !
0f
1L
0O
1\
1B
19
1<
0g
1M
0P
1]
1C
1:
1=
#780000
0"
01
02
1;
1A
1K
1N
0Q
0X
1^
0b
1e
#800000
b1111100010111010 !
b1111110010111010 !
b1101110010111010 !
b1101110011111010 !
b1101110011011010 !
b1101110011011011 !
1f
1F
0L
1O
1Y
0?
1g
1G
0M
1P
1Z
0@
#810000
1"
11
12
#840000
b101110011011011 !
b101110011011111 !
b101111011011111 !
b101111011011101 !
b100111011011101 !
b100101011011101 !
b100101010011101 !
b100101010111101 !
b100101010111100 !
0"
0f
0c
1`
1L
0O
1V
0Y
09
03
01
02
0g
0d
1a
1M
0P
1W
0Z
0:
05
0A
1H
0N
1Q
1[
1h
#870000
1"
11
12
#880000
0#
b100101110111100 !
b100101110110100 !
b100101100110100 !
b100101100110000 !
b100100100110000 !
b100100100110010 !
b101100100110010 !
b101100101110010 !
b101100101010010 !
b101100101010011 !
06
1f
1c
0`
0I
0L
1O
0\
1S
0V
19
07
1g
1d
0a
0J
0M
1P
0]
1T
0W
1:
#900000
0"
01
02
#920000
b101100101000011 !
b111100101000011 !
b111110101000011 !
b111110001000011 !
b111110001001011 !
b111110001001111 !
b111110001001101 !
b110110001001101 !
0c
1`
1I
0F
0S
1Y
09
1?
0d
1a
1J
0G
0T
1Z
0:
1@
#930000
1"
11
12
#960000
b10110001001101 !
b10010001001101 !
b1010010001001101 !
b1010010011001101 !
b1010010010001101 !
b1010010010001100 !
b1010010010011100 !
b1000010010011100 !
b1000000010011100 !
b1001000010011100 !
0"
0f
1F
0O
1\
0Y
0B
19
0?
0<
13
01
02
0g
1G
0P
1]
0Z
0C
1:
0@
0=
15
#990000
1"
11
12
