NZP_Logic/simulation/qsim/NZP_Logic.msim.vcd
$comment
	File created using the following command:
		vcd file NZP_Logic.msim.vcd -direction
$end
$date
	Wed Mar 13 18:05:48 2019
$end
$version
	ModelSim Version 10.5b
$end
$timescale
	1ps
$end

$scope module NZP_Logic_vlg_vec_tst $end
$var reg 16 ! Bus_In [15:0] $end
$var reg 1 " Clock $end
$var reg 1 # Load_NZP_Logic $end
$var reg 1 $ Reset $end
$var wire 1 % N $end
$var wire 1 & P $end
$var wire 1 ' Z $end

$scope module i1 $end
$var wire 1 ( gnd $end
$var wire 1 ) vcc $end
$var wire 1 * unknown $end
$var tri1 1 + devclrn $end
$var tri1 1 , devpor $end
$var tri1 1 - devoe $end
$var wire 1 . N~output_o $end
$var wire 1 / Z~output_o $end
$var wire 1 0 P~output_o $end
$var wire 1 1 Clock~input_o $end
$var wire 1 2 Clock~inputclkctrl_outclk $end
$var wire 1 3 Bus_In[15]~input_o $end
$var wire 1 4 Load_NZP_Logic~input_o $end
$var wire 1 5 Logic|Neg_DFF_15|Q~0_combout $end
$var wire 1 6 Reset~input_o $end
$var wire 1 7 Logic|Neg_DFF_15|Q~q $end
$var wire 1 8 Bus_In[14]~input_o $end
$var wire 1 9 Logic|Neg_DFF_14|Q~0_combout $end
$var wire 1 : Logic|Neg_DFF_14|Q~q $end
$var wire 1 ; Bus_In[12]~input_o $end
$var wire 1 < Logic|Neg_DFF_12|Q~0_combout $end
$var wire 1 = Logic|Neg_DFF_12|Q~q $end
$var wire 1 > Bus_In[11]~input_o $end
$var wire 1 ? Logic|Neg_DFF_11|Q~0_combout $end
$var wire 1 @ Logic|Neg_DFF_11|Q~q $end
$var wire 1 A Bus_In[13]~input_o $end
$var wire 1 B Logic|Neg_DFF_13|Q~0_combout $end
$var wire 1 C Logic|Neg_DFF_13|Q~q $end
$var wire 1 D P~0_combout $end
$var wire 1 E Bus_In[8]~input_o $end
$var wire 1 F Logic|Neg_DFF_8|Q~0_combout $end
$var wire 1 G Logic|Neg_DFF_8|Q~q $end
$var wire 1 H Bus_In[7]~input_o $end
$var wire 1 I Logic|Neg_DFF_7|Q~0_combout $end
$var wire 1 J Logic|Neg_DFF_7|Q~q $end
$var wire 1 K Bus_In[9]~input_o $end
$var wire 1 L Logic|Neg_DFF_9|Q~0_combout $end
$var wire 1 M Logic|Neg_DFF_9|Q~q $end
$var wire 1 N Bus_In[10]~input_o $end
$var wire 1 O Logic|Neg_DFF_10|Q~0_combout $end
$var wire 1 P Logic|Neg_DFF_10|Q~q $end
$var wire 1 Q P~1_combout $end
$var wire 1 R Bus_In[4]~input_o $end
$var wire 1 S Logic|Neg_DFF_4|Q~0_combout $end
$var wire 1 T Logic|Neg_DFF_4|Q~q $end
$var wire 1 U Bus_In[3]~input_o $end
$var wire 1 V Logic|Neg_DFF_3|Q~0_combout $end
$var wire 1 W Logic|Neg_DFF_3|Q~q $end
$var wire 1 X Bus_In[5]~input_o $end
$var wire 1 Y Logic|Neg_DFF_5|Q~0_combout $end
$var wire 1 Z Logic|Neg_DFF_5|Q~q $end
$var wire 1 [ Bus_In[6]~input_o $end
$var wire 1 \ Logic|Neg_DFF_6|Q~0_combout $end
$var wire 1 ] Logic|Neg_DFF_6|Q~q $end
$var wire 1 ^ P~2_combout $end
$var wire 1 _ Bus_In[2]~input_o $end
$var wire 1 ` Logic|Neg_DFF_2|Q~0_combout $end
$var wire 1 a Logic|Neg_DFF_2|Q~q $end
$var wire 1 b Bus_In[1]~input_o $end
$var wire 1 c Logic|Neg_DFF_1|Q~0_combout $end
$var wire 1 d Logic|Neg_DFF_1|Q~q $end
$var wire 1 e Bus_In[0]~input_o $end
$var wire 1 f Logic|Neg_DFF_0|Q~0_combout $end
$var wire 1 g Logic|Neg_DFF_0|Q~q $end
$var wire 1 h P~3_combout $end
$var wire 1 i P~4_combout $end
$var wire 1 j Z~0_combout $end
$var wire 1 k P~5_combout $end
$upscope $end
$upscope $end
$enddefinitions $end
#0
$dumpvars
b1011100100011 !
0"
0#
0$
0%
0&
1'
0(
1)
x*
1+
1,
1-
0.
1/
00
01
02
03
04
05
06
07
08
09
0:
1;
0<
0=
0>
0?
0@
0A
0B
0C
1D
1E
0F
0G
0H
0I
0J
1K
0L
0M
1N
0O
0P
1Q
0R
0S
0T
0U
0V
0W
1X
0Y
0Z
0[
0\
0]
1^
0_
0`
0a
1b
0c
0d
1e
0f
0g
1h
1i
0j
0k
$end
#30000
b1001011100100011 !
b1101011100100011 !
b1111011100100011 !
b1111001100100011 !
b1111000100100011 !
b1111000110100011 !
b1111000110110011 !
b1111000110110111 !
b1111000110110110 !
0e
1_
1R
1H
0K
0N
1A
18
13
#40000
1"
1#
11
14
12
1c
1`
1Y
1S
1I
1F
1B
1<
19
15
#60000
b1110000110110110 !
b1110000111110110 !
b1110000111111110 !
b1110000111111100 !
b1010000111111100 !
b1010001111111100 !
b1010001101111100 !
0b
1U
1[
0H
1K
0;
08
0c
1V
1\
0I
1L
0<
09
#80000
0"
01
02
1C
1G
1M
1T
1W
1Z
1]
1a
17
1.
0D
0Q
0^
0h
1j
1%
0B
0F
0L
0S
0V
0Y
0\
0`
05
0/
0i
0'
#90000
b1010101101111100 !
b10101101111100 !
b10101101101100 !
b10101101101000 !
b11101101101000 !
b11101100101000 !
b11101100101010 !
b111101100101010 !
b111100100101010 !
1b
0_
0R
0[
0K
1>
1;
18
03
1c
1`
1S
1\
1L
1?
1<
19
15
#120000
b111100100001010 !
b101100100001010 !
b101110100001010 !
b101110100001011 !
0#
b101110100000011 !
b101110110000011 !
1"
b1110110000011 !
1e
0U
0X
1H
1N
0A
08
04
11
12
1V
1Y
1B
09
0c
1F
0?
0<
#150000
b1110010000011 !
b1001110010000011 !
b1001110010010011 !
b1000110010010011 !
b1000110011010011 !
b1000110011010001 !
b1000111011010001 !
b1000101011010001 !
b1000101011010000 !
b1000101011011000 !
0e
0b
1U
1R
1[
0E
1K
0N
0;
13
#160000
0"
01
02
#180000
b1000001011011000 !
b1010001011011000 !
b1110001011011000 !
b110001011011000 !
b110011011011000 !
b110011011010000 !
0U
1N
0>
1A
18
03
#200000
1#
1"
14
11
12
0\
0S
1O
0L
1I
0B
19
#210000
b110011011110000 !
b110011111110000 !
b110011111100000 !
b111011111100000 !
b111010111100000 !
b111010111100001 !
b111110111100001 !
b101110111100001 !
b1101110111100001 !
b1101110111101001 !
1e
1U
0R
1X
1E
0K
1>
1;
0A
13
1f
0V
1S
0Y
0F
1L
1?
1<
1B
05
#240000
b1101110111101101 !
b1101110110101101 !
b1101110110101111 !
b1001110110101111 !
b1001100110101111 !
0"
b1001100110001111 !
b1001100010001111 !
b1001100010011111 !
b1000100010011111 !
b1000000010011111 !
b10011111 !
1b
1_
1R
0X
0[
0E
0N
0>
0;
08
03
01
02
1c
0`
0S
1Y
1\
1F
0O
0?
0<
09
15
1:
1=
1@
0G
1J
1P
0W
0Z
0]
1g
07
0.
0%
19
1<
1?
0F
0I
1O
1V
0Y
0\
0f
1k
05
10
1&
#270000
b1010011111 !
b1010010111 !
b1010010011 !
b1010010001 !
b100001010010001 !
b100011010010001 !
b100011010110001 !
b100011010100001 !
b100111010100001 !
b1100111010100001 !
0b
0_
0U
0R
1X
1K
1N
1>
18
13
0c
1`
0V
1S
1Y
0L
0O
0?
09
15
#280000
1"
11
12
#300000
b1100111011100001 !
b1100111111100001 !
b1100111111101001 !
b1100111111001001 !
1U
0X
1[
1E
1V
0Y
1\
1F
#320000
0"
01
02
0:
0@
1G
0J
0M
0P
1W
1]
0g
17
1.
1%
19
1?
0F
1I
1L
1O
0V
0\
1f
0k
05
00
0&
#330000
b1101111111001001 !
b1101111111001011 !
b1101101111001011 !
b1101101111011011 !
b101101111011011 !
b101101110011011 !
b101101010011011 !
1b
1R
0[
0E
0N
1;
03
1c
0S
1\
1F
0O
0<
15
#360000
b101101000011011 !
b111101000011011 !
b111100000011011 !
b11100000011011 !
1"
b11100000011001 !
b1011100000011001 !
0b
0H
0K
1A
08
13
11
12
0c
0I
0L
0B
09
05
#390000
b1011100000011101 !
b1011100000111101 !
b1011100000101101 !
b1011100001101101 !
b1001100001101101 !
b1001100001101111 !
b1100001101111 !
1b
1_
0R
1X
1[
0A
03
1c
0`
1S
1Y
0\
1B
15
#400000
0#
0"
04
01
02
0f
0c
1`
1\
0Y
1V
0?
1<
0=
1@
0W
1Z
0]
0a
1d
1g
0<
1?
0V
1Y
0\
0`
1c
1f
#420000
b1000001101111 !
b1000001100111 !
b1100111 !
b10001100111 !
b10101100111 !
b11101100111 !
b100011101100111 !
b1100011101100111 !
0U
1E
1K
1N
0>
0;
18
13
#440000
1#
1"
14
11
12
0f
0c
1`
1\
0Y
1O
1L
0F
19
05
#450000
b1100011101100110 !
b1100011111100110 !
b1100011111110110 !
b1100011110110110 !
b1100011110110100 !
b1101011110110100 !
b1101001110110100 !
b1101001010110100 !
b1101000010110100 !
b101000010110100 !
0e
0b
1R
0[
1H
0E
0K
0N
1;
03
1f
1c
0S
0\
1I
1F
0L
0O
1<
15
#480000
b111000010110100 !
b11000010110100 !
0"
b11000010110101 !
b10000010110101 !
b10010010110101 !
b10010110110101 !
1e
1E
1N
0;
1A
08
01
02
0f
0F
1O
0<
0B
09
1:
1=
1J
0T
0Z
1a
1^
19
1<
0I
1S
1Y
0`
#510000
b10010110110001 !
b10010110111001 !
b10010100111001 !
b10010100101001 !
b10010101101001 !
b10101101001 !
b10001101001 !
0_
1U
0R
1[
0H
0E
0A
1`
1V
0S
1\
1I
1F
1B
#520000
0#
1"
04
11
12
1f
0\
0Y
0V
0O
#540000
b10001001001 !
b100010001001001 !
b100010001001101 !
b100010001000101 !
b100010011000101 !
b100010010000101 !
1_
0U
0X
0[
1H
18
#560000
1#
0"
14
01
02
0f
0`
1O
0I
09
#570000
b100011010000101 !
b1100011010000101 !
b1100001010000101 !
b1100001010010101 !
b1100001010110101 !
b1000001010110101 !
b1000001000110101 !
b1000001001110101 !
1R
1X
1[
0H
1K
0N
08
13
1S
1Y
1\
1I
1L
0O
19
05
#600000
b1000101001110101 !
b1000101001110100 !
b1001101001110100 !
b1011101001110100 !
b1011101101110100 !
b1011101101111100 !
1"
b1011100101111100 !
b11100101111100 !
b111100101111100 !
b111100111111100 !
b111100110111100 !
0e
1U
0[
1H
1E
0K
1>
1;
1A
18
03
11
12
1f
1V
0\
0I
0F
0L
0?
0<
0B
09
15
#630000
b111100110111000 !
b111110110111000 !
b111110110011000 !
b111010110011000 !
b110010110011000 !
b110011110011000 !
b1110011110011000 !
b1010011110011000 !
b1010011111011000 !
0_
0X
1[
1K
1N
0>
0;
08
13
1`
0Y
1\
1L
1O
1?
1<
19
05
#640000
0#
0"
04
01
02
0\
0V
0S
0O
0L
1I
1F
1B
15
0C
0G
0J
1M
1P
1T
1W
1]
07
0.
0^
0%
0B
0F
0I
1L
1O
1S
1V
1\
1k
05
10
1&
#660000
b1010011111001000 !
b1010011111001001 !
b1000011111001001 !
b1000011101001001 !
b1000011101001101 !
b1000011101101101 !
b1000111101101101 !
b1100111101101101 !
1e
1_
0R
1X
0H
1>
0A
18
#680000
1"
11
12
#690000
b1100111001101101 !
b1100111001100101 !
b1101111001100101 !
b1101111000100101 !
b1101111010100101 !
b1101011010100101 !
0U
0[
1H
0E
0>
1;
#720000
b1101011010100111 !
b1101001010100111 !
b1101000010100111 !
b101000010100111 !
1#
b101000010110111 !
b111000010110111 !
b111000010110011 !
b11000010110011 !
0"
b11000110110011 !
b10000110110011 !
b10000111110011 !
b10000101110011 !
b10100101110011 !
1b
0_
1R
1[
0H
1E
0K
0N
1>
0;
1A
08
03
14
01
02
0c
0S
0\
1F
0?
1B
0f
1Y
#750000
b10100101010011 !
b10100101011011 !
b10101101011011 !
b1010101101011011 !
b1000101101011011 !
b1000101101011111 !
b1000101001011111 !
b1000001001011111 !
1_
1U
0X
0E
1K
0>
0A
13
0`
0V
0Y
0F
0L
1?
0B
15
#760000
1"
11
12
#780000
b1000011001011111 !
b1000011001001111 !
b1100011001001111 !
b1101011001001111 !
b1101011000001111 !
b1101011010001111 !
b1101011010000111 !
b101011010000111 !
b101111010000111 !
0U
0R
0[
1H
1N
1>
1;
18
03
1V
1S
1\
1I
0O
0?
0<
09
05
#800000
0#
0"
04
01
02
1f
1c
1`
1O
1L
0I
1?
1<
19
0:
0=
0@
1J
0M
0P
0a
0d
0g
1D
1h
09
0<
0?
1I
0L
0O
0`
0c
0f
#810000
b101111010000110 !
b101111010100110 !
b111111010100110 !
b111111010100010 !
b111111010110010 !
b11111010110010 !
b10111010110010 !
b10111011110010 !
b10111011111010 !
0e
0_
1U
1R
1X
1[
0;
1A
08
#840000
b10111011111000 !
1"
0b
11
12
#870000
b10110011111000 !
b10100011111000 !
b10100001111000 !
b100001111000 !
b100100001111000 !
b101100001111000 !
b101100000111000 !
b101100000110000 !
0U
0[
0H
0K
0N
1;
0A
18
#880000
0"
01
02
#900000
b1101100000110000 !
b1101000000110000 !
b1101000000110001 !
b1101000000010001 !
b1101000000010101 !
b1101000000010111 !
b1101001000010111 !
b1101011000010111 !
b1101011010010111 !
b1001011010010111 !
1e
1b
1_
0X
1H
1K
1N
0>
08
13
#920000
1#
1"
14
11
12
1f
1c
1`
0S
1O
1L
0I
1<
15
#930000
b1000011010010111 !
b1000011011010111 !
b1000011011011111 !
b11011011111 !
b111011011111 !
b111011011110 !
b111011011100 !
b111001011100 !
0e
0b
1U
1[
0H
1>
0;
03
0f
0c
0V
0\
1I
1?
0<
05
#960000
b111001001100 !
b111001101100 !
b100111001101100 !
0"
b101111001101100 !
b101111000101100 !
b101111000100100 !
b1101111000100100 !
b1101011000100100 !
b1101011000100101 !
b1101011010100101 !
1e
0U
0R
1X
0[
1H
0>
1;
18
13
01
02
1f
1V
1S
1Y
1\
0I
0?
1<
19
15
1@
1M
1P
0T
0W
0]
1a
0D
1^
0h
1?
0L
0O
0S
0V
0\
0`
#990000
b1101011110100101 !
b1111011110100101 !
b1111011110100001 !
b1111010110100001 !
b1111000110100001 !
b1111000110100011 !
b1111000111100011 !
b1111000111101011 !
b111000111101011 !
b111100111101011 !
b111100111101010 !
0e
1b
0_
1U
1[
1E
0K
0N
1>
1A
03
0f
1c
1`
1V
1\
1F
1L
1O
0?
1B
05
